﻿<?xml version="1.0" encoding="utf-8"?>
<report
	progress="">
	<activity
		result="Success"
		duration="0ms"
		durationms="0"
		type="root"
		rid="11dac587d24f625a"
		totalerrorcount="0"
		totalwarningcount="1"
		totalsuccesstestcasecount="0"
		totalfailedtestcasecount="0"
		totalblockedtestcasecount="0"
		totalsuccesscount="0"
		totalfailedcount="0"
		totalblockedcount="0"
		user="PG2137"
		rxversion="7.1.1.0"
		host="EGSPL-AUR324"
		osversion="Windows 10 64bit"
		runtimeversion="4.0.30319.42000"
		procarch="32bit"
		oslanguage="en-US"
		dtnlanguage="en-US"
		screenresolution="4800x1350"
		timestamp="5/24/2018 12:06:40 PM"
		timestampiso="2018-05-24T06:36:40"
		endtime="5/24/2018 12:07:32 PM"
		timeoutfactor="1"
		module="Player">
		<detail>
			Player
		</detail>
		<item
			timeRelativeToTestSuiteStartTime="00:00.599"
			timeRelativeToTestModuleStartTime="00:00.606"
			timeWallClock="12:06:41"
			time="00:00.599"
			level="Warn"
			category="General">
			<message>
				Different display DPI scaling values are in use. Please make sure all connected displays have the same DPI scaling value.<br/>The following website provides more information on this technology limitation:<br/>https://www.ranorex.com/help/v7.1.1/technology-instrumentation/general-troubleshooting#GeneralTroubleshooting-DifferentDisplayDPIScalingValues<br/>(This message is only shown once per report.)
			</message>
			<metainfo
				limitationName="DifferentDpi"
				showInProgressDialog="False"
				loglvl="Warn">
			</metainfo>
		</item>
		<varbindings>
		</varbindings>
		<item
			timeRelativeToTestSuiteStartTime="00:00.661"
			timeRelativeToTestModuleStartTime="00:00.668"
			timeWallClock="12:06:41"
			time="00:00.661"
			level="Info"
			category="Application">
			<message>
				Run application 'C:\CMORE\CFrame2.1\bin\release\CFrame2.exe' with arguments '' in normal mode.
			</message>
			<metainfo
				itemindex="0"
				codefile="c:\Users\PG2137\Documents\Ranorex\RanorexStudio Projects\player\player\Player.cs"
				codeline="82"
				loglvl="Info">
			</metainfo>
		</item>
		<item
			timeRelativeToTestSuiteStartTime="00:00.756"
			timeRelativeToTestModuleStartTime="00:00.763"
			timeWallClock="12:06:41"
			time="00:00.756"
			level="Info"
			category="Mouse">
			<message>
				Mouse Left Click item 'CFRAME2.ClearConfig' at 73;17.
			</message>
			<metainfo
				type="repoitem"
				path="/form[@processname='CFrame2' and @class='Qt5QWindowIcon' and @instance='2']/?/?/button[@accessiblename='Clear Config']"
				fullname="playerRepository.CFRAME2.ClearConfig"
				id="29ef79ee16d340278fe005ab4c542836"
				timeout="60000"
				codefile="c:\Users\PG2137\Documents\Ranorex\RanorexStudio Projects\player\player\Player.cs"
				codeline="86"
				itemindex="1"
				loglvl="Info">
			</metainfo>
		</item>
		<item
			timeRelativeToTestSuiteStartTime="00:03.104"
			timeRelativeToTestModuleStartTime="00:03.111"
			timeWallClock="12:06:43"
			time="00:03.104"
			level="Info"
			category="Mouse">
			<message>
				Mouse Left Click item 'CFRAME2.List.JpegEncoder' at 117;8.
			</message>
			<metainfo
				type="repoitem"
				path="/form[@processname='CFrame2' and @class='Qt5QWindowIcon' and @instance='2']/container[1]//list[@accessiblerole='List']/listitem[@accessiblename='JpegEncoder']"
				fullname="playerRepository.CFRAME2.List.JpegEncoder"
				id="1ee92ad57e3849d28f706d4b477d3b1c"
				timeout="90000"
				codefile="c:\Users\PG2137\Documents\Ranorex\RanorexStudio Projects\player\player\Player.cs"
				codeline="90"
				itemindex="2"
				loglvl="Info">
			</metainfo>
		</item>
		<item
			timeRelativeToTestSuiteStartTime="00:03.949"
			timeRelativeToTestModuleStartTime="00:03.956"
			timeWallClock="12:06:44"
			time="00:03.949"
			level="Info"
			category="Mouse">
			<message>
				Mouse Scroll Vertical by -120 units.
			</message>
			<metainfo
				itemindex="3"
				codefile="c:\Users\PG2137\Documents\Ranorex\RanorexStudio Projects\player\player\Player.cs"
				codeline="94"
				loglvl="Info">
			</metainfo>
		</item>
		<item
			timeRelativeToTestSuiteStartTime="00:04.458"
			timeRelativeToTestModuleStartTime="00:04.465"
			timeWallClock="12:06:44"
			time="00:04.458"
			level="Info"
			category="Mouse">
			<message>
				Mouse Left Click item 'CFRAME2.List.Player' at 25;16.
			</message>
			<metainfo
				type="repoitem"
				path="/form[@processname='CFrame2' and @class='Qt5QWindowIcon' and @instance='2']/container[1]//list[@accessiblerole='List']/listitem[@accessiblename='Player']"
				fullname="playerRepository.CFRAME2.List.Player"
				id="3975242ef8e74a5eac6d4513a1514b59"
				timeout="90000"
				codefile="c:\Users\PG2137\Documents\Ranorex\RanorexStudio Projects\player\player\Player.cs"
				codeline="98"
				itemindex="4"
				loglvl="Info">
			</metainfo>
		</item>
		<item
			timeRelativeToTestSuiteStartTime="00:05.301"
			timeRelativeToTestModuleStartTime="00:05.308"
			timeWallClock="12:06:45"
			time="00:05.301"
			level="Info"
			category="Mouse">
			<message>
				Mouse Left Down item 'CFRAME2.List.Player' at 26;15.
			</message>
			<metainfo
				type="repoitem"
				path="/form[@processname='CFrame2' and @class='Qt5QWindowIcon' and @instance='2']/container[1]//list[@accessiblerole='List']/listitem[@accessiblename='Player']"
				fullname="playerRepository.CFRAME2.List.Player"
				id="3975242ef8e74a5eac6d4513a1514b59"
				timeout="90000"
				codefile="c:\Users\PG2137\Documents\Ranorex\RanorexStudio Projects\player\player\Player.cs"
				codeline="102"
				itemindex="5"
				loglvl="Info">
			</metainfo>
		</item>
		<item
			timeRelativeToTestSuiteStartTime="00:06.048"
			timeRelativeToTestModuleStartTime="00:06.055"
			timeWallClock="12:06:46"
			time="00:06.048"
			level="Info"
			category="Mouse">
			<message>
				Mouse Left Move item 'CFRAME2.List.Player' at 34;7.
			</message>
			<metainfo
				type="repoitem"
				path="/form[@processname='CFrame2' and @class='Qt5QWindowIcon' and @instance='2']/container[1]//list[@accessiblerole='List']/listitem[@accessiblename='Player']"
				fullname="playerRepository.CFRAME2.List.Player"
				id="3975242ef8e74a5eac6d4513a1514b59"
				timeout="90000"
				codefile="c:\Users\PG2137\Documents\Ranorex\RanorexStudio Projects\player\player\Player.cs"
				codeline="107"
				itemindex="6"
				loglvl="Info">
			</metainfo>
		</item>
		<item
			timeRelativeToTestSuiteStartTime="00:06.736"
			timeRelativeToTestModuleStartTime="00:06.743"
			timeWallClock="12:06:47"
			time="00:06.736"
			level="Info"
			category="Mouse">
			<message>
				Mouse Left Up item 'CFRAME2.Client' at 549;131.
			</message>
			<metainfo
				type="repoitem"
				path="/form[@processname='CFrame2' and @class='Qt5QWindowIcon' and @instance='2']/container[2]/container[@accessiblerole='Client']"
				fullname="playerRepository.CFRAME2.Client"
				id="33fcc659c4734841b3cc447e67ea9463"
				timeout="60000"
				codefile="c:\Users\PG2137\Documents\Ranorex\RanorexStudio Projects\player\player\Player.cs"
				codeline="111"
				itemindex="7"
				loglvl="Info">
			</metainfo>
		</item>
		<item
			timeRelativeToTestSuiteStartTime="00:07.388"
			timeRelativeToTestModuleStartTime="00:07.395"
			timeWallClock="12:06:47"
			time="00:07.388"
			level="Info"
			category="Mouse">
			<message>
				Mouse Left Click item 'CFRAME2.Client' at 74;131.
			</message>
			<metainfo
				type="repoitem"
				path="/form[@processname='CFrame2' and @class='Qt5QWindowIcon' and @instance='2']/container[2]/container[@accessiblerole='Client']"
				fullname="playerRepository.CFRAME2.Client"
				id="33fcc659c4734841b3cc447e67ea9463"
				timeout="60000"
				codefile="c:\Users\PG2137\Documents\Ranorex\RanorexStudio Projects\player\player\Player.cs"
				codeline="116"
				itemindex="8"
				loglvl="Info">
			</metainfo>
		</item>
		<item
			timeRelativeToTestSuiteStartTime="00:08.168"
			timeRelativeToTestModuleStartTime="00:08.175"
			timeWallClock="12:06:48"
			time="00:08.168"
			level="Info"
			category="Mouse">
			<message>
				Mouse Left Down item 'CFRAME2.Client' at 394;107.
			</message>
			<metainfo
				type="repoitem"
				path="/form[@processname='CFrame2' and @class='Qt5QWindowIcon' and @instance='2']/container[2]/container[@accessiblerole='Client']"
				fullname="playerRepository.CFRAME2.Client"
				id="33fcc659c4734841b3cc447e67ea9463"
				timeout="60000"
				codefile="c:\Users\PG2137\Documents\Ranorex\RanorexStudio Projects\player\player\Player.cs"
				codeline="120"
				itemindex="9"
				loglvl="Info">
			</metainfo>
		</item>
		<item
			timeRelativeToTestSuiteStartTime="00:08.866"
			timeRelativeToTestModuleStartTime="00:08.873"
			timeWallClock="12:06:49"
			time="00:08.866"
			level="Info"
			category="Mouse">
			<message>
				Mouse Left Up item 'CFRAME2.Client' at 160;118.
			</message>
			<metainfo
				type="repoitem"
				path="/form[@processname='CFrame2' and @class='Qt5QWindowIcon' and @instance='2']/container[2]/container[@accessiblerole='Client']"
				fullname="playerRepository.CFRAME2.Client"
				id="33fcc659c4734841b3cc447e67ea9463"
				timeout="60000"
				codefile="c:\Users\PG2137\Documents\Ranorex\RanorexStudio Projects\player\player\Player.cs"
				codeline="125"
				itemindex="10"
				loglvl="Info">
			</metainfo>
		</item>
		<item
			timeRelativeToTestSuiteStartTime="00:09.503"
			timeRelativeToTestModuleStartTime="00:09.510"
			timeWallClock="12:06:49"
			time="00:09.503"
			level="Info"
			category="Mouse">
			<message>
				Mouse Left Click item 'CFRAME2.List.JpegDecoder' at 73;16.
			</message>
			<metainfo
				type="repoitem"
				path="/form[@processname='CFrame2' and @class='Qt5QWindowIcon' and @instance='2']/container[1]//list[@accessiblerole='List']/listitem[@accessiblename='JpegDecoder']"
				fullname="playerRepository.CFRAME2.List.JpegDecoder"
				id="577965cdc32048598b3b7f98ce1ef905"
				timeout="90000"
				codefile="c:\Users\PG2137\Documents\Ranorex\RanorexStudio Projects\player\player\Player.cs"
				codeline="130"
				itemindex="11"
				loglvl="Info">
			</metainfo>
		</item>
		<item
			timeRelativeToTestSuiteStartTime="00:10.368"
			timeRelativeToTestModuleStartTime="00:10.375"
			timeWallClock="12:06:50"
			time="00:10.368"
			level="Info"
			category="Mouse">
			<message>
				Mouse Left Down item 'CFRAME2.List.JpegDecoder' at 74;13.
			</message>
			<metainfo
				type="repoitem"
				path="/form[@processname='CFrame2' and @class='Qt5QWindowIcon' and @instance='2']/container[1]//list[@accessiblerole='List']/listitem[@accessiblename='JpegDecoder']"
				fullname="playerRepository.CFRAME2.List.JpegDecoder"
				id="577965cdc32048598b3b7f98ce1ef905"
				timeout="90000"
				codefile="c:\Users\PG2137\Documents\Ranorex\RanorexStudio Projects\player\player\Player.cs"
				codeline="134"
				itemindex="12"
				loglvl="Info">
			</metainfo>
		</item>
		<item
			timeRelativeToTestSuiteStartTime="00:11.091"
			timeRelativeToTestModuleStartTime="00:11.098"
			timeWallClock="12:06:51"
			time="00:11.091"
			level="Info"
			category="Mouse">
			<message>
				Mouse Left Move item 'CFRAME2.List.JpegDecoder' at 82;5.
			</message>
			<metainfo
				type="repoitem"
				path="/form[@processname='CFrame2' and @class='Qt5QWindowIcon' and @instance='2']/container[1]//list[@accessiblerole='List']/listitem[@accessiblename='JpegDecoder']"
				fullname="playerRepository.CFRAME2.List.JpegDecoder"
				id="577965cdc32048598b3b7f98ce1ef905"
				timeout="90000"
				codefile="c:\Users\PG2137\Documents\Ranorex\RanorexStudio Projects\player\player\Player.cs"
				codeline="139"
				itemindex="13"
				loglvl="Info">
			</metainfo>
		</item>
		<item
			timeRelativeToTestSuiteStartTime="00:11.827"
			timeRelativeToTestModuleStartTime="00:11.834"
			timeWallClock="12:06:52"
			time="00:11.827"
			level="Info"
			category="Mouse">
			<message>
				Mouse Left Up item 'CFRAME2.Client' at 504;166.
			</message>
			<metainfo
				type="repoitem"
				path="/form[@processname='CFrame2' and @class='Qt5QWindowIcon' and @instance='2']/container[2]/container[@accessiblerole='Client']"
				fullname="playerRepository.CFRAME2.Client"
				id="33fcc659c4734841b3cc447e67ea9463"
				timeout="60000"
				codefile="c:\Users\PG2137\Documents\Ranorex\RanorexStudio Projects\player\player\Player.cs"
				codeline="143"
				itemindex="14"
				loglvl="Info">
			</metainfo>
		</item>
		<item
			timeRelativeToTestSuiteStartTime="00:12.501"
			timeRelativeToTestModuleStartTime="00:12.508"
			timeWallClock="12:06:52"
			time="00:12.501"
			level="Info"
			category="Mouse">
			<message>
				Mouse Left Click item 'CFRAME2.Client' at 504;166.
			</message>
			<metainfo
				type="repoitem"
				path="/form[@processname='CFrame2' and @class='Qt5QWindowIcon' and @instance='2']/container[2]/container[@accessiblerole='Client']"
				fullname="playerRepository.CFRAME2.Client"
				id="33fcc659c4734841b3cc447e67ea9463"
				timeout="60000"
				codefile="c:\Users\PG2137\Documents\Ranorex\RanorexStudio Projects\player\player\Player.cs"
				codeline="148"
				itemindex="15"
				loglvl="Info">
			</metainfo>
		</item>
		<item
			timeRelativeToTestSuiteStartTime="00:13.318"
			timeRelativeToTestModuleStartTime="00:13.325"
			timeWallClock="12:06:53"
			time="00:13.318"
			level="Info"
			category="Mouse">
			<message>
				Mouse Left Click item 'CFRAME2.List.PclView' at 43;8.
			</message>
			<metainfo
				type="repoitem"
				path="/form[@processname='CFrame2' and @class='Qt5QWindowIcon' and @instance='2']/container[1]//list[@accessiblerole='List']/listitem[@accessiblename='PclView']"
				fullname="playerRepository.CFRAME2.List.PclView"
				id="f6d4bcbd329e487fbfe91cd2a326d8fa"
				timeout="90000"
				codefile="c:\Users\PG2137\Documents\Ranorex\RanorexStudio Projects\player\player\Player.cs"
				codeline="152"
				itemindex="16"
				loglvl="Info">
			</metainfo>
		</item>
		<item
			timeRelativeToTestSuiteStartTime="00:14.174"
			timeRelativeToTestModuleStartTime="00:14.181"
			timeWallClock="12:06:54"
			time="00:14.174"
			level="Info"
			category="Mouse">
			<message>
				Mouse Scroll Vertical by -480 units.
			</message>
			<metainfo
				itemindex="17"
				codefile="c:\Users\PG2137\Documents\Ranorex\RanorexStudio Projects\player\player\Player.cs"
				codeline="156"
				loglvl="Info">
			</metainfo>
		</item>
		<item
			timeRelativeToTestSuiteStartTime="00:14.692"
			timeRelativeToTestModuleStartTime="00:14.699"
			timeWallClock="12:06:55"
			time="00:14.692"
			level="Info"
			category="Mouse">
			<message>
				Mouse Left Click item 'CFRAME2.List.VideoWidget' at 50;14.
			</message>
			<metainfo
				type="repoitem"
				path="/form[@processname='CFrame2' and @class='Qt5QWindowIcon' and @instance='2']/container[1]//list[@accessiblerole='List']/listitem[@accessiblename='VideoWidget']"
				fullname="playerRepository.CFRAME2.List.VideoWidget"
				id="1595c2a3678c4db9b916abe0875857d1"
				timeout="90000"
				codefile="c:\Users\PG2137\Documents\Ranorex\RanorexStudio Projects\player\player\Player.cs"
				codeline="160"
				itemindex="18"
				loglvl="Info">
			</metainfo>
		</item>
		<item
			timeRelativeToTestSuiteStartTime="00:15.586"
			timeRelativeToTestModuleStartTime="00:15.593"
			timeWallClock="12:06:56"
			time="00:15.586"
			level="Info"
			category="Mouse">
			<message>
				Mouse Left Down item 'CFRAME2.List.VideoWidget' at 66;10.
			</message>
			<metainfo
				type="repoitem"
				path="/form[@processname='CFrame2' and @class='Qt5QWindowIcon' and @instance='2']/container[1]//list[@accessiblerole='List']/listitem[@accessiblename='VideoWidget']"
				fullname="playerRepository.CFRAME2.List.VideoWidget"
				id="1595c2a3678c4db9b916abe0875857d1"
				timeout="90000"
				codefile="c:\Users\PG2137\Documents\Ranorex\RanorexStudio Projects\player\player\Player.cs"
				codeline="164"
				itemindex="19"
				loglvl="Info">
			</metainfo>
		</item>
		<item
			timeRelativeToTestSuiteStartTime="00:16.280"
			timeRelativeToTestModuleStartTime="00:16.287"
			timeWallClock="12:06:56"
			time="00:16.280"
			level="Info"
			category="Mouse">
			<message>
				Mouse Left Move item 'CFRAME2.List.VideoWidget' at 74;2.
			</message>
			<metainfo
				type="repoitem"
				path="/form[@processname='CFrame2' and @class='Qt5QWindowIcon' and @instance='2']/container[1]//list[@accessiblerole='List']/listitem[@accessiblename='VideoWidget']"
				fullname="playerRepository.CFRAME2.List.VideoWidget"
				id="1595c2a3678c4db9b916abe0875857d1"
				timeout="90000"
				codefile="c:\Users\PG2137\Documents\Ranorex\RanorexStudio Projects\player\player\Player.cs"
				codeline="169"
				itemindex="20"
				loglvl="Info">
			</metainfo>
		</item>
		<item
			timeRelativeToTestSuiteStartTime="00:17.020"
			timeRelativeToTestModuleStartTime="00:17.027"
			timeWallClock="12:06:57"
			time="00:17.020"
			level="Info"
			category="Mouse">
			<message>
				Mouse Left Up item 'CFRAME2.Client' at 866;179.
			</message>
			<metainfo
				type="repoitem"
				path="/form[@processname='CFrame2' and @class='Qt5QWindowIcon' and @instance='2']/container[2]/container[@accessiblerole='Client']"
				fullname="playerRepository.CFRAME2.Client"
				id="33fcc659c4734841b3cc447e67ea9463"
				timeout="60000"
				codefile="c:\Users\PG2137\Documents\Ranorex\RanorexStudio Projects\player\player\Player.cs"
				codeline="173"
				itemindex="21"
				loglvl="Info">
			</metainfo>
		</item>
		<item
			timeRelativeToTestSuiteStartTime="00:17.707"
			timeRelativeToTestModuleStartTime="00:17.714"
			timeWallClock="12:06:58"
			time="00:17.707"
			level="Info"
			category="Mouse">
			<message>
				Mouse Left Click item 'CFRAME2.Client' at 866;179.
			</message>
			<metainfo
				type="repoitem"
				path="/form[@processname='CFrame2' and @class='Qt5QWindowIcon' and @instance='2']/container[2]/container[@accessiblerole='Client']"
				fullname="playerRepository.CFRAME2.Client"
				id="33fcc659c4734841b3cc447e67ea9463"
				timeout="60000"
				codefile="c:\Users\PG2137\Documents\Ranorex\RanorexStudio Projects\player\player\Player.cs"
				codeline="178"
				itemindex="22"
				loglvl="Info">
			</metainfo>
		</item>
		<item
			timeRelativeToTestSuiteStartTime="00:18.509"
			timeRelativeToTestModuleStartTime="00:18.517"
			timeWallClock="12:06:58"
			time="00:18.509"
			level="Info"
			category="Mouse">
			<message>
				Mouse Left Click item 'CFRAME2.Open' at 38;12.
			</message>
			<metainfo
				type="repoitem"
				path="/form[@processname='CFrame2' and @class='Qt5QWindowIcon' and @instance='2']/?/?/button[@accessiblename='Open']"
				fullname="playerRepository.CFRAME2.Open"
				id="0666540b813e4373814be5cd982838a8"
				timeout="60000"
				codefile="c:\Users\PG2137\Documents\Ranorex\RanorexStudio Projects\player\player\Player.cs"
				codeline="182"
				itemindex="23"
				loglvl="Info">
			</metainfo>
		</item>
		<item
			timeRelativeToTestSuiteStartTime="00:19.768"
			timeRelativeToTestModuleStartTime="00:19.775"
			timeWallClock="12:07:00"
			time="00:19.768"
			level="Info"
			category="Mouse">
			<message>
				Mouse Left Click item 'Open.NewVolumeD' at 7;11.
			</message>
			<metainfo
				type="repoitem"
				path="/form[@title='Open']/element[@class='DUIViewWndClassName']/container/element[1]/?/?/tree[@controlid='100']//treeitem[@text='New Volume (D:)']"
				fullname="playerRepository.Open.NewVolumeD"
				id="fcab6a9b1d27418d9be7ea1184326d07"
				timeout="60000"
				codefile="c:\Users\PG2137\Documents\Ranorex\RanorexStudio Projects\player\player\Player.cs"
				codeline="186"
				itemindex="24"
				loglvl="Info">
			</metainfo>
		</item>
		<item
			timeRelativeToTestSuiteStartTime="00:20.991"
			timeRelativeToTestModuleStartTime="00:20.998"
			timeWallClock="12:07:01"
			time="00:20.991"
			level="Info"
			category="Mouse">
			<message>
				Mouse Left Click item 'Open.ShellView.SystemItemNameDisplay' at 139;2.
			</message>
			<metainfo
				type="repoitem"
				path="/form[@title='Open']/element[@class='DUIViewWndClassName']//container[@caption='ShellView']/?/?/listitem[@automationid='4']/text[@automationid='System.ItemNameDisplay']"
				fullname="playerRepository.Open.ShellView.SystemItemNameDisplay"
				id="ec22f834069846f2ba3311cc5bd8b274"
				timeout="90000"
				codefile="c:\Users\PG2137\Documents\Ranorex\RanorexStudio Projects\player\player\Player.cs"
				codeline="190"
				itemindex="25"
				loglvl="Info">
			</metainfo>
		</item>
		<item
			timeRelativeToTestSuiteStartTime="00:22.510"
			timeRelativeToTestModuleStartTime="00:22.518"
			timeWallClock="12:07:02"
			time="00:22.510"
			level="Info"
			category="Mouse">
			<message>
				Mouse Scroll Vertical by -360 units.
			</message>
			<metainfo
				itemindex="26"
				codefile="c:\Users\PG2137\Documents\Ranorex\RanorexStudio Projects\player\player\Player.cs"
				codeline="194"
				loglvl="Info">
			</metainfo>
		</item>
		<item
			timeRelativeToTestSuiteStartTime="00:23.085"
			timeRelativeToTestModuleStartTime="00:23.092"
			timeWallClock="12:07:03"
			time="00:23.085"
			level="Info"
			category="Mouse">
			<message>
				Mouse Left Click item 'Open.ShellView.SystemItemNameDisplay1' at 46;18.
			</message>
			<metainfo
				type="repoitem"
				path="/form[@title='Open']/element[@class='DUIViewWndClassName']//container[@caption='ShellView']/?/?/listitem[@automationid='17']/text[@automationid='System.ItemNameDisplay']"
				fullname="playerRepository.Open.ShellView.SystemItemNameDisplay1"
				id="502300a802594b1ca6eaf3b6b0ceac82"
				timeout="90000"
				codefile="c:\Users\PG2137\Documents\Ranorex\RanorexStudio Projects\player\player\Player.cs"
				codeline="198"
				itemindex="27"
				loglvl="Info">
			</metainfo>
		</item>
		<item
			timeRelativeToTestSuiteStartTime="00:24.566"
			timeRelativeToTestModuleStartTime="00:24.573"
			timeWallClock="12:07:05"
			time="00:24.566"
			level="Info"
			category="Mouse">
			<message>
				Mouse Left Click item 'Open.ButtonOpen' at 43;12.
			</message>
			<metainfo
				type="repoitem"
				path="/form[@title='Open']/button[@text='&amp;Open']"
				fullname="playerRepository.Open.ButtonOpen"
				id="056a3e7324f147a499e6929ba5dcf956"
				timeout="60000"
				codefile="c:\Users\PG2137\Documents\Ranorex\RanorexStudio Projects\player\player\Player.cs"
				codeline="202"
				itemindex="28"
				loglvl="Info">
			</metainfo>
		</item>
		<item
			timeRelativeToTestSuiteStartTime="00:25.347"
			timeRelativeToTestModuleStartTime="00:25.354"
			timeWallClock="12:07:05"
			time="00:25.347"
			level="Info"
			category="Mouse">
			<message>
				Mouse Left Click item 'Open.ShellView.SystemItemNameDisplay2' at 53;16.
			</message>
			<metainfo
				type="repoitem"
				path="/form[@title='Open']/element[@class='DUIViewWndClassName']//container[@caption='ShellView']/?/?/listitem[@automationid='2']/text[@automationid='System.ItemNameDisplay']"
				fullname="playerRepository.Open.ShellView.SystemItemNameDisplay2"
				id="7cd4d45b7ac84a179ec554a5d5ea8bb7"
				timeout="90000"
				codefile="c:\Users\PG2137\Documents\Ranorex\RanorexStudio Projects\player\player\Player.cs"
				codeline="206"
				itemindex="29"
				loglvl="Info">
			</metainfo>
		</item>
		<item
			timeRelativeToTestSuiteStartTime="00:26.480"
			timeRelativeToTestModuleStartTime="00:26.487"
			timeWallClock="12:07:06"
			time="00:26.480"
			level="Info"
			category="Mouse">
			<message>
				Mouse Left Click item 'Open.ButtonOpen' at 31;11.
			</message>
			<metainfo
				type="repoitem"
				path="/form[@title='Open']/button[@text='&amp;Open']"
				fullname="playerRepository.Open.ButtonOpen"
				id="056a3e7324f147a499e6929ba5dcf956"
				timeout="60000"
				codefile="c:\Users\PG2137\Documents\Ranorex\RanorexStudio Projects\player\player\Player.cs"
				codeline="210"
				itemindex="30"
				loglvl="Info">
			</metainfo>
		</item>
		<item
			timeRelativeToTestSuiteStartTime="00:27.221"
			timeRelativeToTestModuleStartTime="00:27.228"
			timeWallClock="12:07:07"
			time="00:27.221"
			level="Info"
			category="Mouse">
			<message>
				Mouse Left Click item 'Open.ShellView.SystemItemNameDisplay3' at 21;11.
			</message>
			<metainfo
				type="repoitem"
				path="/form[@title='Open']/element[@class='DUIViewWndClassName']//container[@caption='ShellView']/?/?/listitem[@automationid='8']/text[@automationid='System.ItemNameDisplay']"
				fullname="playerRepository.Open.ShellView.SystemItemNameDisplay3"
				id="5dc78734e52343078684d9a93d238b4f"
				timeout="90000"
				codefile="c:\Users\PG2137\Documents\Ranorex\RanorexStudio Projects\player\player\Player.cs"
				codeline="214"
				itemindex="31"
				loglvl="Info">
			</metainfo>
		</item>
		<item
			timeRelativeToTestSuiteStartTime="00:28.962"
			timeRelativeToTestModuleStartTime="00:28.969"
			timeWallClock="12:07:09"
			time="00:28.962"
			level="Info"
			category="Mouse">
			<message>
				Mouse Left Click item 'Open.ButtonOpen' at 57;12.
			</message>
			<metainfo
				type="repoitem"
				path="/form[@title='Open']/button[@text='&amp;Open']"
				fullname="playerRepository.Open.ButtonOpen"
				id="056a3e7324f147a499e6929ba5dcf956"
				timeout="60000"
				codefile="c:\Users\PG2137\Documents\Ranorex\RanorexStudio Projects\player\player\Player.cs"
				codeline="218"
				itemindex="32"
				loglvl="Info">
			</metainfo>
		</item>
		<item
			timeRelativeToTestSuiteStartTime="00:29.815"
			timeRelativeToTestModuleStartTime="00:29.822"
			timeWallClock="12:07:10"
			time="00:29.815"
			level="Info"
			category="Mouse">
			<message>
				Mouse Left Click item 'Open.ShellView.SystemItemNameDisplay4' at 93;12.
			</message>
			<metainfo
				type="repoitem"
				path="/form[@title='Open']/element[@class='DUIViewWndClassName']//container[@caption='ShellView']/?/?/listitem[@automationid='5']/text[@automationid='System.ItemNameDisplay']"
				fullname="playerRepository.Open.ShellView.SystemItemNameDisplay4"
				id="d7b1aba46dfc4e9a8327bac445eaa2a8"
				timeout="90000"
				codefile="c:\Users\PG2137\Documents\Ranorex\RanorexStudio Projects\player\player\Player.cs"
				codeline="222"
				itemindex="33"
				loglvl="Info">
			</metainfo>
		</item>
		<item
			timeRelativeToTestSuiteStartTime="00:31.049"
			timeRelativeToTestModuleStartTime="00:31.056"
			timeWallClock="12:07:11"
			time="00:31.049"
			level="Info"
			category="Mouse">
			<message>
				Mouse Left Click item 'Open.ButtonOpen' at 59;25.
			</message>
			<metainfo
				type="repoitem"
				path="/form[@title='Open']/button[@text='&amp;Open']"
				fullname="playerRepository.Open.ButtonOpen"
				id="056a3e7324f147a499e6929ba5dcf956"
				timeout="60000"
				codefile="c:\Users\PG2137\Documents\Ranorex\RanorexStudio Projects\player\player\Player.cs"
				codeline="226"
				itemindex="34"
				loglvl="Info">
			</metainfo>
		</item>
		<item
			timeRelativeToTestSuiteStartTime="00:31.973"
			timeRelativeToTestModuleStartTime="00:31.980"
			timeWallClock="12:07:12"
			time="00:31.973"
			level="Info"
			category="Mouse">
			<message>
				Mouse Left Click item 'CFRAME2.Client' at 430;302.
			</message>
			<metainfo
				type="repoitem"
				path="/form[@processname='CFrame2' and @class='Qt5QWindowIcon' and @instance='2']/container[2]/container[@accessiblerole='Client']"
				fullname="playerRepository.CFRAME2.Client"
				id="33fcc659c4734841b3cc447e67ea9463"
				timeout="60000"
				codefile="c:\Users\PG2137\Documents\Ranorex\RanorexStudio Projects\player\player\Player.cs"
				codeline="230"
				itemindex="35"
				loglvl="Info">
			</metainfo>
		</item>
		<item
			timeRelativeToTestSuiteStartTime="00:32.818"
			timeRelativeToTestModuleStartTime="00:32.825"
			timeWallClock="12:07:13"
			time="00:32.818"
			level="Info"
			category="Mouse">
			<message>
				Mouse Left Click item 'CFRAME2.Client' at 440;297.
			</message>
			<metainfo
				type="repoitem"
				path="/form[@processname='CFrame2' and @class='Qt5QWindowIcon' and @instance='2']/container[2]/container[@accessiblerole='Client']"
				fullname="playerRepository.CFRAME2.Client"
				id="33fcc659c4734841b3cc447e67ea9463"
				timeout="60000"
				codefile="c:\Users\PG2137\Documents\Ranorex\RanorexStudio Projects\player\player\Player.cs"
				codeline="234"
				itemindex="36"
				loglvl="Info">
			</metainfo>
		</item>
		<item
			timeRelativeToTestSuiteStartTime="00:33.640"
			timeRelativeToTestModuleStartTime="00:33.647"
			timeWallClock="12:07:14"
			time="00:33.640"
			level="Info"
			category="Mouse">
			<message>
				Mouse Left Click item 'CFRAME2.Client' at 423;261.
			</message>
			<metainfo
				type="repoitem"
				path="/form[@processname='CFrame2' and @class='Qt5QWindowIcon' and @instance='2']/container[2]/container[@accessiblerole='Client']"
				fullname="playerRepository.CFRAME2.Client"
				id="33fcc659c4734841b3cc447e67ea9463"
				timeout="60000"
				codefile="c:\Users\PG2137\Documents\Ranorex\RanorexStudio Projects\player\player\Player.cs"
				codeline="238"
				itemindex="37"
				loglvl="Info">
			</metainfo>
		</item>
		<item
			timeRelativeToTestSuiteStartTime="00:34.450"
			timeRelativeToTestModuleStartTime="00:34.457"
			timeWallClock="12:07:14"
			time="00:34.450"
			level="Info"
			category="Mouse">
			<message>
				Mouse Left Click item 'CFRAME2.Client' at 472;237.
			</message>
			<metainfo
				type="repoitem"
				path="/form[@processname='CFrame2' and @class='Qt5QWindowIcon' and @instance='2']/container[2]/container[@accessiblerole='Client']"
				fullname="playerRepository.CFRAME2.Client"
				id="33fcc659c4734841b3cc447e67ea9463"
				timeout="60000"
				codefile="c:\Users\PG2137\Documents\Ranorex\RanorexStudio Projects\player\player\Player.cs"
				codeline="242"
				itemindex="38"
				loglvl="Info">
			</metainfo>
		</item>
		<item
			timeRelativeToTestSuiteStartTime="00:35.255"
			timeRelativeToTestModuleStartTime="00:35.262"
			timeWallClock="12:07:15"
			time="00:35.255"
			level="Info"
			category="Mouse">
			<message>
				Mouse Left Click item 'CFRAME2.Client' at 768;219.
			</message>
			<metainfo
				type="repoitem"
				path="/form[@processname='CFrame2' and @class='Qt5QWindowIcon' and @instance='2']/container[2]/container[@accessiblerole='Client']"
				fullname="playerRepository.CFRAME2.Client"
				id="33fcc659c4734841b3cc447e67ea9463"
				timeout="60000"
				codefile="c:\Users\PG2137\Documents\Ranorex\RanorexStudio Projects\player\player\Player.cs"
				codeline="246"
				itemindex="39"
				loglvl="Info">
			</metainfo>
		</item>
		<item
			timeRelativeToTestSuiteStartTime="00:36.074"
			timeRelativeToTestModuleStartTime="00:36.082"
			timeWallClock="12:07:16"
			time="00:36.074"
			level="Info"
			category="Mouse">
			<message>
				Mouse Left Click item 'CFRAME2.Client' at 825;245.
			</message>
			<metainfo
				type="repoitem"
				path="/form[@processname='CFrame2' and @class='Qt5QWindowIcon' and @instance='2']/container[2]/container[@accessiblerole='Client']"
				fullname="playerRepository.CFRAME2.Client"
				id="33fcc659c4734841b3cc447e67ea9463"
				timeout="60000"
				codefile="c:\Users\PG2137\Documents\Ranorex\RanorexStudio Projects\player\player\Player.cs"
				codeline="250"
				itemindex="40"
				loglvl="Info">
			</metainfo>
		</item>
		<item
			timeRelativeToTestSuiteStartTime="00:36.883"
			timeRelativeToTestModuleStartTime="00:36.890"
			timeWallClock="12:07:17"
			time="00:36.883"
			level="Info"
			category="Mouse">
			<message>
				Mouse Left Click item 'CFRAME2.Play' at 45;10.
			</message>
			<metainfo
				type="repoitem"
				path="/form[@processname='CFrame2' and @class='Qt5QWindowIcon' and @instance='2']/?/?/button[@accessiblename='Play']"
				fullname="playerRepository.CFRAME2.Play"
				id="e08f32eeed4a4682975d9182b3b6e276"
				timeout="60000"
				codefile="c:\Users\PG2137\Documents\Ranorex\RanorexStudio Projects\player\player\Player.cs"
				codeline="254"
				itemindex="41"
				loglvl="Info">
			</metainfo>
		</item>
		<item
			timeRelativeToTestSuiteStartTime="00:38.312"
			timeRelativeToTestModuleStartTime="00:38.319"
			timeWallClock="12:07:18"
			time="00:38.312"
			level="Info"
			category="Mouse">
			<message>
				Mouse Left Down item 'CFRAME2' at 245;864.
			</message>
			<metainfo
				type="repoitem"
				path="/form[@processname='CFrame2' and @class='Qt5QWindowIcon' and @instance='2']"
				fullname="playerRepository.CFRAME2.Self"
				id="a6ccb9b365c24ae9a0ce0218c71c7249"
				timeout="30000"
				codefile="c:\Users\PG2137\Documents\Ranorex\RanorexStudio Projects\player\player\Player.cs"
				codeline="258"
				itemindex="42"
				loglvl="Info">
			</metainfo>
		</item>
		<item
			timeRelativeToTestSuiteStartTime="00:38.830"
			timeRelativeToTestModuleStartTime="00:38.837"
			timeWallClock="12:07:19"
			time="00:38.830"
			level="Info"
			category="Mouse">
			<message>
				Mouse Left Up item 'CFRAME2' at 264;723.
			</message>
			<metainfo
				type="repoitem"
				path="/form[@processname='CFrame2' and @class='Qt5QWindowIcon' and @instance='2']"
				fullname="playerRepository.CFRAME2.Self"
				id="a6ccb9b365c24ae9a0ce0218c71c7249"
				timeout="30000"
				codefile="c:\Users\PG2137\Documents\Ranorex\RanorexStudio Projects\player\player\Player.cs"
				codeline="263"
				itemindex="43"
				loglvl="Info">
			</metainfo>
		</item>
		<item
			timeRelativeToTestSuiteStartTime="00:39.348"
			timeRelativeToTestModuleStartTime="00:39.355"
			timeWallClock="12:07:19"
			time="00:39.348"
			level="Info"
			category="Mouse">
			<message>
				Mouse Left Click item 'CFRAME2.Client' at 906;203.
			</message>
			<metainfo
				type="repoitem"
				path="/form[@processname='CFrame2' and @class='Qt5QWindowIcon' and @instance='2']/container[2]/container[@accessiblerole='Client']"
				fullname="playerRepository.CFRAME2.Client"
				id="33fcc659c4734841b3cc447e67ea9463"
				timeout="60000"
				codefile="c:\Users\PG2137\Documents\Ranorex\RanorexStudio Projects\player\player\Player.cs"
				codeline="268"
				itemindex="44"
				loglvl="Info">
			</metainfo>
		</item>
		<item
			timeRelativeToTestSuiteStartTime="00:40.303"
			timeRelativeToTestModuleStartTime="00:40.310"
			timeWallClock="12:07:20"
			time="00:40.303"
			level="Info"
			category="Mouse">
			<message>
				Mouse Left DoubleClick item 'CFRAME2.SpinButton' at 21;8.
			</message>
			<metainfo
				type="repoitem"
				path="/form[@processname='CFrame2' and @class='Qt5QWindowIcon' and @instance='2']/container[7]/container[@accessiblerole='SpinButton']"
				fullname="playerRepository.CFRAME2.SpinButton"
				id="f216f9668ac7457da9628cea5c8fa7b7"
				timeout="60000"
				codefile="c:\Users\PG2137\Documents\Ranorex\RanorexStudio Projects\player\player\Player.cs"
				codeline="272"
				itemindex="45"
				loglvl="Info">
			</metainfo>
		</item>
		<item
			timeRelativeToTestSuiteStartTime="00:41.275"
			timeRelativeToTestModuleStartTime="00:41.282"
			timeWallClock="12:07:21"
			time="00:41.275"
			level="Info"
			category="Mouse">
			<message>
				Mouse Left Click item 'CFRAME2.SpinButton' at 21;8.
			</message>
			<metainfo
				type="repoitem"
				path="/form[@processname='CFrame2' and @class='Qt5QWindowIcon' and @instance='2']/container[7]/container[@accessiblerole='SpinButton']"
				fullname="playerRepository.CFRAME2.SpinButton"
				id="f216f9668ac7457da9628cea5c8fa7b7"
				timeout="60000"
				codefile="c:\Users\PG2137\Documents\Ranorex\RanorexStudio Projects\player\player\Player.cs"
				codeline="276"
				itemindex="46"
				loglvl="Info">
			</metainfo>
		</item>
		<item
			timeRelativeToTestSuiteStartTime="00:42.082"
			timeRelativeToTestModuleStartTime="00:42.089"
			timeWallClock="12:07:22"
			time="00:42.082"
			level="Info"
			category="Keyboard">
			<message>
				Key sequence '{Back}' with focus on 'CFRAME2.SpinButton'.
			</message>
			<metainfo
				type="repoitem"
				path="/form[@processname='CFrame2' and @class='Qt5QWindowIcon' and @instance='2']/container[7]/container[@accessiblerole='SpinButton']"
				fullname="playerRepository.CFRAME2.SpinButton"
				id="f216f9668ac7457da9628cea5c8fa7b7"
				timeout="60000"
				codefile="c:\Users\PG2137\Documents\Ranorex\RanorexStudio Projects\player\player\Player.cs"
				codeline="280"
				itemindex="47"
				loglvl="Info">
			</metainfo>
		</item>
		<item
			timeRelativeToTestSuiteStartTime="00:42.489"
			timeRelativeToTestModuleStartTime="00:42.496"
			timeWallClock="12:07:22"
			time="00:42.489"
			level="Info"
			category="Keyboard">
			<message>
				Key sequence '{Back}{Back}' with focus on 'CFRAME2.SpinButton'.
			</message>
			<metainfo
				type="repoitem"
				path="/form[@processname='CFrame2' and @class='Qt5QWindowIcon' and @instance='2']/container[7]/container[@accessiblerole='SpinButton']"
				fullname="playerRepository.CFRAME2.SpinButton"
				id="f216f9668ac7457da9628cea5c8fa7b7"
				timeout="60000"
				codefile="c:\Users\PG2137\Documents\Ranorex\RanorexStudio Projects\player\player\Player.cs"
				codeline="284"
				itemindex="48"
				loglvl="Info">
			</metainfo>
		</item>
		<item
			timeRelativeToTestSuiteStartTime="00:42.965"
			timeRelativeToTestModuleStartTime="00:42.972"
			timeWallClock="12:07:23"
			time="00:42.965"
			level="Info"
			category="Mouse">
			<message>
				Mouse Left Click item 'CFRAME2.ModuleClass' at 124;11.
			</message>
			<metainfo
				type="repoitem"
				path="/form[@processname='CFrame2' and @class='Qt5QWindowIcon' and @instance='2']/?/?/treeitem[@accessiblename='Module Class']"
				fullname="playerRepository.CFRAME2.ModuleClass"
				id="4aee9f34849f4a8684f9f62881296595"
				timeout="60000"
				codefile="c:\Users\PG2137\Documents\Ranorex\RanorexStudio Projects\player\player\Player.cs"
				codeline="288"
				itemindex="49"
				loglvl="Info">
			</metainfo>
		</item>
		<item
			timeRelativeToTestSuiteStartTime="00:44.641"
			timeRelativeToTestModuleStartTime="00:44.648"
			timeWallClock="12:07:25"
			time="00:44.641"
			level="Info"
			category="Mouse">
			<message>
				Mouse Scroll Vertical by -480 units.
			</message>
			<metainfo
				itemindex="50"
				codefile="c:\Users\PG2137\Documents\Ranorex\RanorexStudio Projects\player\player\Player.cs"
				codeline="292"
				loglvl="Info">
			</metainfo>
		</item>
		<item
			timeRelativeToTestSuiteStartTime="00:45.149"
			timeRelativeToTestModuleStartTime="00:45.156"
			timeWallClock="12:07:25"
			time="00:45.149"
			level="Info"
			category="Mouse">
			<message>
				Mouse Left Click item 'CFRAME2.OutlineItem' at 17;14.
			</message>
			<metainfo
				type="repoitem"
				path="/form[@processname='CFrame2' and @class='Qt5QWindowIcon' and @instance='2']/tree[2]/treeitem[12]"
				fullname="playerRepository.CFRAME2.OutlineItem"
				id="1f7adcec69f24a5d952f3ab525f97162"
				timeout="60000"
				codefile="c:\Users\PG2137\Documents\Ranorex\RanorexStudio Projects\player\player\Player.cs"
				codeline="296"
				itemindex="51"
				loglvl="Info">
			</metainfo>
		</item>
		<item
			timeRelativeToTestSuiteStartTime="00:46.022"
			timeRelativeToTestModuleStartTime="00:46.030"
			timeWallClock="12:07:26"
			time="00:46.022"
			level="Info"
			category="Validation">
			<message>
				Validating Exists on item 'CFRAME2.SpinButton'.
			</message>
			<metainfo
				type="repoitem"
				path="/form[@processname='CFrame2' and @class='Qt5QWindowIcon' and @instance='2']/container[7]/container[@accessiblerole='SpinButton']"
				fullname="playerRepository.CFRAME2.SpinButton"
				id="f216f9668ac7457da9628cea5c8fa7b7"
				timeout="60000"
				codefile="c:\Users\PG2137\Documents\Ranorex\RanorexStudio Projects\player\player\Player.cs"
				codeline="300"
				itemindex="52"
				loglvl="Info">
			</metainfo>
		</item>
		<item
			timeRelativeToTestSuiteStartTime="00:46.229"
			timeRelativeToTestModuleStartTime="00:46.236"
			timeWallClock="12:07:26"
			time="00:46.229"
			level="Success"
			category="Validation">
			<message>
				Element for item 'SpinButton' does exist.
			</message>
			<metainfo
				type="repoitem"
				path="/form[@processname='CFrame2' and @class='Qt5QWindowIcon' and @instance='2']/container[7]/container[@accessiblerole='SpinButton']"
				fullname="playerRepository.CFRAME2.SpinButton"
				id="f216f9668ac7457da9628cea5c8fa7b7"
				timeout="60000"
				codefile="c:\Users\PG2137\Documents\Ranorex\RanorexStudio Projects\player\player\Player.cs"
				codeline="301"
				loglvl="Success"
				itemindex="52">
			</metainfo>
		</item>
		<item
			timeRelativeToTestSuiteStartTime="00:46.340"
			timeRelativeToTestModuleStartTime="00:46.347"
			timeWallClock="12:07:26"
			time="00:46.340"
			level="Info"
			category="Validation">
			<message>
				Validating Exists on item 'CFRAME2.OutlineItem'.
			</message>
			<metainfo
				type="repoitem"
				path="/form[@processname='CFrame2' and @class='Qt5QWindowIcon' and @instance='2']/tree[2]/treeitem[12]"
				fullname="playerRepository.CFRAME2.OutlineItem"
				id="1f7adcec69f24a5d952f3ab525f97162"
				timeout="60000"
				codefile="c:\Users\PG2137\Documents\Ranorex\RanorexStudio Projects\player\player\Player.cs"
				codeline="304"
				itemindex="53"
				loglvl="Info">
			</metainfo>
		</item>
		<item
			timeRelativeToTestSuiteStartTime="00:46.531"
			timeRelativeToTestModuleStartTime="00:46.538"
			timeWallClock="12:07:27"
			time="00:46.531"
			level="Success"
			category="Validation">
			<message>
				Element for item 'OutlineItem' does exist.
			</message>
			<metainfo
				type="repoitem"
				path="/form[@processname='CFrame2' and @class='Qt5QWindowIcon' and @instance='2']/tree[2]/treeitem[12]"
				fullname="playerRepository.CFRAME2.OutlineItem"
				id="1f7adcec69f24a5d952f3ab525f97162"
				timeout="60000"
				codefile="c:\Users\PG2137\Documents\Ranorex\RanorexStudio Projects\player\player\Player.cs"
				codeline="305"
				loglvl="Success"
				itemindex="53">
			</metainfo>
		</item>
		<item
			timeRelativeToTestSuiteStartTime="00:46.640"
			timeRelativeToTestModuleStartTime="00:46.647"
			timeWallClock="12:07:27"
			time="00:46.640"
			level="Info"
			category="Mouse">
			<message>
				Mouse Left Click item 'CFRAME2.Stop' at 24;12.
			</message>
			<metainfo
				type="repoitem"
				path="/form[@processname='CFrame2' and @class='Qt5QWindowIcon' and @instance='2']/?/?/button[@accessiblename='Stop']"
				fullname="playerRepository.CFRAME2.Stop"
				id="dd3a1dc600054928a306656992dfffb3"
				timeout="60000"
				codefile="c:\Users\PG2137\Documents\Ranorex\RanorexStudio Projects\player\player\Player.cs"
				codeline="308"
				itemindex="54"
				loglvl="Info">
			</metainfo>
		</item>
		<item
			timeRelativeToTestSuiteStartTime="00:48.339"
			timeRelativeToTestModuleStartTime="00:48.346"
			timeWallClock="12:07:28"
			time="00:48.339"
			level="Info"
			category="Mouse">
			<message>
				Mouse Left Click item 'CFRAME2.Play' at 36;9.
			</message>
			<metainfo
				type="repoitem"
				path="/form[@processname='CFrame2' and @class='Qt5QWindowIcon' and @instance='2']/?/?/button[@accessiblename='Play']"
				fullname="playerRepository.CFRAME2.Play"
				id="e08f32eeed4a4682975d9182b3b6e276"
				timeout="60000"
				codefile="c:\Users\PG2137\Documents\Ranorex\RanorexStudio Projects\player\player\Player.cs"
				codeline="312"
				itemindex="55"
				loglvl="Info">
			</metainfo>
		</item>
		<item
			timeRelativeToTestSuiteStartTime="00:49.860"
			timeRelativeToTestModuleStartTime="00:49.867"
			timeWallClock="12:07:30"
			time="00:49.860"
			level="Info"
			category="Mouse">
			<message>
				Mouse Left Click item 'CFRAME2.Reload' at 51;30.
			</message>
			<metainfo
				type="repoitem"
				path="/form[@processname='CFrame2' and @class='Qt5QWindowIcon' and @instance='2']/?/?/button[@accessiblename='Reload']"
				fullname="playerRepository.CFRAME2.Reload"
				id="726d8f7102d640cf8185ae5e20238b31"
				timeout="60000"
				codefile="c:\Users\PG2137\Documents\Ranorex\RanorexStudio Projects\player\player\Player.cs"
				codeline="316"
				itemindex="56"
				loglvl="Info">
			</metainfo>
		</item>
	</activity>
</report>
