﻿<?xml version="1.0" encoding="utf-8"?>
<report
	progress="">
	<activity
		result="Failed"
		duration="0ms"
		durationms="0"
		type="root"
		rid="11abd97fb5f64b7e"
		totalerrorcount="1"
		totalwarningcount="0"
		totalsuccesstestcasecount="0"
		totalfailedtestcasecount="0"
		totalblockedtestcasecount="0"
		totalsuccesscount="0"
		totalfailedcount="0"
		totalblockedcount="0"
		user="PG2137"
		rxversion="7.1.1.0"
		host="EGSPL-AUR324"
		osversion="Windows 10 64bit"
		runtimeversion="4.0.30319.42000"
		procarch="32bit"
		oslanguage="en-US"
		dtnlanguage="en-US"
		screenresolution="1920x1080"
		timestamp="5/15/2018 5:27:10 PM"
		timestampiso="2018-05-15T11:57:10"
		endtime="5/15/2018 5:27:44 PM"
		timeoutfactor="1"
		module="Recording1">
		<detail>
			Recording1
		</detail>
		<errormessage>
			Failed to find item 'cRepository.CFRAME2.File'.
		</errormessage>
		<varbindings>
		</varbindings>
		<item
			timeRelativeToTestSuiteStartTime="00:00.652"
			timeRelativeToTestModuleStartTime="00:00.657"
			timeWallClock="17:27:10"
			time="00:00.652"
			level="Info"
			category="Application">
			<message>
				Run application 'C:\CMORE\CFrame2.1\bin\release\CFrame2.exe' with arguments '' in normal mode.
			</message>
			<metainfo
				itemindex="0"
				codefile="c:\Users\PG2137\Documents\Ranorex\RanorexStudio Projects\c\c\Recording1.cs"
				codeline="82"
				loglvl="Info">
			</metainfo>
		</item>
		<item
			timeRelativeToTestSuiteStartTime="00:00.737"
			timeRelativeToTestModuleStartTime="00:00.742"
			timeWallClock="17:27:10"
			time="00:00.737"
			level="Info"
			category="Mouse"
			errimg=".\Recordin_2b7a328c_ada87a4e_trace.jpg"
			errthumb=".\Recordin_2b7a328c_ada87a4e_trace_thumb.jpg">
			<message>
				Mouse Left Click item 'CFRAME2.ClearConfig' at 70;11.
			</message>
			<metainfo
				type="repoitem"
				path="/form[@processname='CFrame2' and @class='Qt5QWindowIcon' and @instance='1']/?/?/toolbar[@accessiblename='Tools']/button[@accessiblename='Clear Config']"
				fullname="cRepository.CFRAME2.ClearConfig"
				id="5c9b29e947094d56b11312c37c8880c7"
				timeout="60000"
				codefile="c:\Users\PG2137\Documents\Ranorex\RanorexStudio Projects\c\c\Recording1.cs"
				codeline="86"
				itemindex="1"
				loglvl="Info">
			</metainfo>
		</item>
		<item
			timeRelativeToTestSuiteStartTime="00:03.482"
			timeRelativeToTestModuleStartTime="00:03.487"
			timeWallClock="17:27:13"
			time="00:03.482"
			level="Info"
			category="Mouse"
			errimg=".\Recordin_2b7a328c_6201a0bd_trace.jpg"
			errthumb=".\Recordin_2b7a328c_6201a0bd_trace_thumb.jpg">
			<message>
				Mouse Left Click item 'CFRAME2.File' at 25;16.
			</message>
			<metainfo
				type="repoitem"
				path="/form[@processname='CFrame2' and @class='Qt5QWindowIcon' and @instance='1']/element[@instance='1']/?/?/menuitem[@accessiblename='File']"
				fullname="cRepository.CFRAME2.File"
				id="baf95ac014b24be086abacf3e719fb90"
				timeout="60000"
				codefile="c:\Users\PG2137\Documents\Ranorex\RanorexStudio Projects\c\c\Recording1.cs"
				codeline="90"
				itemindex="2"
				loglvl="Info">
			</metainfo>
		</item>
		<item
			timeRelativeToTestSuiteStartTime="00:33.936"
			timeRelativeToTestModuleStartTime="00:33.941"
			timeWallClock="17:27:44"
			time="00:33.936"
			level="Error"
			category="Module"
			errimg=".\Recordin_2b7a328c_69deca0a_trace.jpg"
			errthumb=".\Recordin_2b7a328c_69deca0a_trace_thumb.jpg">
			<message>
				Failed to find item 'cRepository.CFRAME2.File'.<br/>No element found for path 'element[@instance='1']/?/?/menuitem[@accessiblename='File']' within 30s.
			</message>
			<metainfo
				stacktrace="   at Ranorex.Core.Repository.RepoItemInfo.Find[T](Boolean findSingle, Boolean throwException, Duration effectiveTimeoutOverride)
   at Ranorex.Core.Repository.RepoItemInfo.CreateAdapter[T](Boolean throwException, Duration waitTimeout)
   at Ranorex.Core.Repository.RepoItemInfo.CreateAdapter[T](Boolean throwException)
   at c.cRepositoryFolders.CFRAME2AppFolder.get_File() in c:\Users\PG2137\Documents\Ranorex\RanorexStudio Projects\c\c\cRepository.cs:line 220
   at c.Recording1.Ranorex.Core.Testing.ITestModule.Run() in c:\Users\PG2137\Documents\Ranorex\RanorexStudio Projects\c\c\Recording1.cs:line 91
   at Ranorex.Core.Testing.TestModuleLeaf.RunInternal(DataContext parentDataContext, Int32 iteration, Boolean skipIteration)"
				codefile="c:\Users\PG2137\Documents\Ranorex\RanorexStudio Projects\c\c\Recording1.cs"
				codeline="91"
				type="repoitem"
				path="/form[@processname='CFrame2' and @class='Qt5QWindowIcon' and @instance='1']/element[@instance='1']/?/?/menuitem[@accessiblename='File']"
				fullname="cRepository.CFRAME2.File"
				id="baf95ac014b24be086abacf3e719fb90"
				timeout="60000"
				loglvl="Error"
				itemindex="2">
			</metainfo>
		</item>
	</activity>
</report>
