﻿<?xml version="1.0" encoding="utf-8"?>
<report
	progress="">
	<activity
		result="Failed"
		duration="17.96s"
		durationms="17962"
		type="root"
		rid="8a3de234b2281cc"
		totalerrorcount="1"
		totalwarningcount="0"
		totalsuccesstestcasecount="0"
		totalfailedtestcasecount="0"
		totalblockedtestcasecount="0"
		totalsuccesscount="0"
		totalfailedcount="0"
		totalblockedcount="0"
		user="PG2137"
		rxversion="7.1.1.0"
		host="EGSPL-AUR324"
		osversion="Windows 10 64bit"
		runtimeversion="4.0.30319.42000"
		procarch="32bit"
		oslanguage="en-US"
		dtnlanguage="en-US"
		screenresolution="1920x1080"
		timestamp="5/15/2018 5:41:52 PM"
		timestampiso="2018-05-15T12:11:52"
		endtime="5/15/2018 5:42:10 PM"
		timeoutfactor="1"
		module="Recording1">
		<detail>
			Recording1
		</detail>
		<varbindings>
		</varbindings>
		<item
			timeRelativeToTestSuiteStartTime="00:00.610"
			timeRelativeToTestModuleStartTime="00:00.615"
			timeWallClock="17:41:53"
			time="00:00.610"
			level="Info"
			category="Application">
			<message>
				Run application 'C:\CMORE\CFrame2.1\bin\release\CFrame2.exe' with arguments '' in normal mode.
			</message>
			<metainfo
				itemindex="0"
				codefile="c:\Users\PG2137\Documents\Ranorex\RanorexStudio Projects\c\c\Recording1.cs"
				codeline="82"
				loglvl="Info">
			</metainfo>
		</item>
		<item
			timeRelativeToTestSuiteStartTime="00:00.685"
			timeRelativeToTestModuleStartTime="00:00.690"
			timeWallClock="17:41:53"
			time="00:00.685"
			level="Info"
			category="Mouse">
			<message>
				Mouse Left Click item 'CFRAME2.ClearConfig' at 70;11.
			</message>
			<metainfo
				type="repoitem"
				path="/form[@processname='CFrame2' and @class='Qt5QWindowIcon' and @instance='1']/?/?/toolbar[@accessiblename='Tools']/button[@accessiblename='Clear Config']"
				fullname="cRepository.CFRAME2.ClearConfig"
				id="5c9b29e947094d56b11312c37c8880c7"
				timeout="60000"
				codefile="c:\Users\PG2137\Documents\Ranorex\RanorexStudio Projects\c\c\Recording1.cs"
				codeline="86"
				itemindex="1"
				loglvl="Info">
			</metainfo>
		</item>
		<item
			timeRelativeToTestSuiteStartTime="00:02.946"
			timeRelativeToTestModuleStartTime="00:02.951"
			timeWallClock="17:41:55"
			time="00:02.946"
			level="Info"
			category="Mouse">
			<message>
				Mouse Left Click item 'CFRAME2.File' at 25;16.
			</message>
			<metainfo
				type="repoitem"
				path="/form[@processname='CFrame2' and @class='Qt5QWindowIcon' and @instance='1']/element[@instance='1']/?/?/menuitem[@accessiblename='File']"
				fullname="cRepository.CFRAME2.File"
				id="baf95ac014b24be086abacf3e719fb90"
				timeout="60000"
				codefile="c:\Users\PG2137\Documents\Ranorex\RanorexStudio Projects\c\c\Recording1.cs"
				codeline="90"
				itemindex="2"
				loglvl="Info">
			</metainfo>
		</item>
		<item
			timeRelativeToTestSuiteStartTime="00:17.961"
			timeRelativeToTestModuleStartTime="00:17.966"
			timeWallClock="17:42:10"
			time="00:17.961"
			level="Error"
			category="Module">
			<message>
				The test run has been aborted by the user.
			</message>
			<metainfo
				loglvl="Error">
			</metainfo>
		</item>
	</activity>
</report>
