﻿<?xml version="1.0" encoding="utf-8"?>
<report
	progress="">
	<activity
		result="Success"
		duration="0ms"
		durationms="0"
		type="root"
		rid="10aff97a19c07558"
		totalerrorcount="0"
		totalwarningcount="3"
		totalsuccesstestcasecount="0"
		totalfailedtestcasecount="0"
		totalblockedtestcasecount="0"
		totalsuccesscount="0"
		totalfailedcount="0"
		totalblockedcount="0"
		user="PG2137"
		rxversion="7.1.1.0"
		host="EGSPL-AUR324"
		osversion="Windows 10 64bit"
		runtimeversion="4.0.30319.42000"
		procarch="32bit"
		oslanguage="en-US"
		dtnlanguage="en-US"
		screenresolution="4800x1350"
		timestamp="5/24/2018 11:27:08 AM"
		timestampiso="2018-05-24T05:57:08"
		endtime="5/24/2018 11:27:35 AM"
		timeoutfactor="1"
		module="Webcam">
		<detail>
			Webcam
		</detail>
		<item
			timeRelativeToTestSuiteStartTime="00:00.714"
			timeRelativeToTestModuleStartTime="00:00.725"
			timeWallClock="11:27:09"
			time="00:00.714"
			level="Warn"
			category="General">
			<message>
				Different display DPI scaling values are in use. Please make sure all connected displays have the same DPI scaling value.<br/>The following website provides more information on this technology limitation:<br/>https://www.ranorex.com/help/v7.1.1/technology-instrumentation/general-troubleshooting#GeneralTroubleshooting-DifferentDisplayDPIScalingValues<br/>(This message is only shown once per report.)
			</message>
			<metainfo
				limitationName="DifferentDpi"
				showInProgressDialog="False"
				loglvl="Warn">
			</metainfo>
		</item>
		<varbindings>
		</varbindings>
		<item
			timeRelativeToTestSuiteStartTime="00:00.773"
			timeRelativeToTestModuleStartTime="00:00.784"
			timeWallClock="11:27:09"
			time="00:00.773"
			level="Info"
			category="Application">
			<message>
				Run application 'C:\CMORE\CFrame2.1\bin\release\CFrame2.exe' with arguments '' in normal mode.
			</message>
			<metainfo
				itemindex="0"
				codefile="C:\Users\PG2137\Documents\Ranorex\RanorexStudio Projects\webcamnew\webcamnew\Webcam.vb"
				codeline="79"
				loglvl="Info">
			</metainfo>
		</item>
		<item
			timeRelativeToTestSuiteStartTime="00:00.842"
			timeRelativeToTestModuleStartTime="00:00.853"
			timeWallClock="11:27:09"
			time="00:00.842"
			level="Info"
			category="Mouse">
			<message>
				Mouse Left Click item 'CFRAME2.ClearConfig' at 67;10.
			</message>
			<metainfo
				type="repoitem"
				path="/form[@title~'^C\.FRAME\ 2\ \ \ \ \ \ \ \ \ \ \ \ \ \ \ \ ']/?/?/button[@accessiblename='Clear Config']"
				fullname="webcamnewRepository.CFRAME2.ClearConfig"
				id="9ed9515a5fdb466b8e24598f3249b5c5"
				timeout="60000"
				codefile="C:\Users\PG2137\Documents\Ranorex\RanorexStudio Projects\webcamnew\webcamnew\Webcam.vb"
				codeline="83"
				itemindex="1"
				loglvl="Info">
			</metainfo>
		</item>
		<item
			timeRelativeToTestSuiteStartTime="00:04.419"
			timeRelativeToTestModuleStartTime="00:04.430"
			timeWallClock="11:27:12"
			time="00:04.419"
			level="Info"
			category="Mouse">
			<message>
				Mouse Left Click item 'CFRAME2.List.IDSCamera' at 95;13.
			</message>
			<metainfo
				type="repoitem"
				path="/form[@title~'^C\.FRAME\ 2\ \ \ \ \ \ \ \ \ \ \ \ \ \ \ \ ']/container[1]//list[@accessiblerole='List']/listitem[@accessiblename='IDSCamera']"
				fullname="webcamnewRepository.CFRAME2.List.IDSCamera"
				id="0cd572c96c2e4113ac5e7bc903af87fb"
				timeout="90000"
				codefile="C:\Users\PG2137\Documents\Ranorex\RanorexStudio Projects\webcamnew\webcamnew\Webcam.vb"
				codeline="87"
				itemindex="2"
				loglvl="Info">
			</metainfo>
		</item>
		<item
			timeRelativeToTestSuiteStartTime="00:05.653"
			timeRelativeToTestModuleStartTime="00:05.665"
			timeWallClock="11:27:13"
			time="00:05.653"
			level="Info"
			category="Mouse">
			<message>
				Mouse Scroll Vertical by -480 units.
			</message>
			<metainfo
				itemindex="3"
				codefile="C:\Users\PG2137\Documents\Ranorex\RanorexStudio Projects\webcamnew\webcamnew\Webcam.vb"
				codeline="91"
				loglvl="Info">
			</metainfo>
		</item>
		<item
			timeRelativeToTestSuiteStartTime="00:06.175"
			timeRelativeToTestModuleStartTime="00:06.186"
			timeWallClock="11:27:14"
			time="00:06.175"
			level="Info"
			category="Mouse">
			<message>
				Mouse Left Click item 'CFRAME2.List.Webcam' at 55;7.
			</message>
			<metainfo
				type="repoitem"
				path="/form[@title~'^C\.FRAME\ 2\ \ \ \ \ \ \ \ \ \ \ \ \ \ \ \ ']/container[1]//list[@accessiblerole='List']/listitem[@accessiblename='Webcam']"
				fullname="webcamnewRepository.CFRAME2.List.Webcam"
				id="9e0e4a248ad44516bd0f10a847dbddbc"
				timeout="90000"
				codefile="C:\Users\PG2137\Documents\Ranorex\RanorexStudio Projects\webcamnew\webcamnew\Webcam.vb"
				codeline="95"
				itemindex="4"
				loglvl="Info">
			</metainfo>
		</item>
		<item
			timeRelativeToTestSuiteStartTime="00:07.262"
			timeRelativeToTestModuleStartTime="00:07.273"
			timeWallClock="11:27:15"
			time="00:07.262"
			level="Info"
			category="Mouse">
			<message>
				Mouse Left Down item 'CFRAME2.List.Webcam' at 55;7.
			</message>
			<metainfo
				type="repoitem"
				path="/form[@title~'^C\.FRAME\ 2\ \ \ \ \ \ \ \ \ \ \ \ \ \ \ \ ']/container[1]//list[@accessiblerole='List']/listitem[@accessiblename='Webcam']"
				fullname="webcamnewRepository.CFRAME2.List.Webcam"
				id="9e0e4a248ad44516bd0f10a847dbddbc"
				timeout="90000"
				codefile="C:\Users\PG2137\Documents\Ranorex\RanorexStudio Projects\webcamnew\webcamnew\Webcam.vb"
				codeline="99"
				itemindex="5"
				loglvl="Info">
			</metainfo>
		</item>
		<item
			timeRelativeToTestSuiteStartTime="00:08.241"
			timeRelativeToTestModuleStartTime="00:08.252"
			timeWallClock="11:27:16"
			time="00:08.241"
			level="Info"
			category="Mouse">
			<message>
				Mouse Left Move item 'CFRAME2.List.Webcam' at 63;-1.
			</message>
			<metainfo
				type="repoitem"
				path="/form[@title~'^C\.FRAME\ 2\ \ \ \ \ \ \ \ \ \ \ \ \ \ \ \ ']/container[1]//list[@accessiblerole='List']/listitem[@accessiblename='Webcam']"
				fullname="webcamnewRepository.CFRAME2.List.Webcam"
				id="9e0e4a248ad44516bd0f10a847dbddbc"
				timeout="90000"
				codefile="C:\Users\PG2137\Documents\Ranorex\RanorexStudio Projects\webcamnew\webcamnew\Webcam.vb"
				codeline="104"
				itemindex="6"
				loglvl="Info">
			</metainfo>
		</item>
		<item
			timeRelativeToTestSuiteStartTime="00:08.858"
			timeRelativeToTestModuleStartTime="00:08.869"
			timeWallClock="11:27:17"
			time="00:08.858"
			level="Warn"
			category="MoveTo">
			<message>
				The mouse action was performed outside the boundaries of the assigned UI element.<br/><a class="thickbox" style="padding-right:8px" rel="module" href=".\Webcam20_938646ba_rxlog.jpg"><img src=".\Webcam20_938646ba_rxlog_thumb.jpg" alt="Screenshot"/></a>
			</message>
			<metainfo
				codefile="C:\Users\PG2137\Documents\Ranorex\RanorexStudio Projects\webcamnew\webcamnew\Webcam.vb"
				codeline="105"
				loglvl="Warn">
			</metainfo>
		</item>
		<item
			timeRelativeToTestSuiteStartTime="00:09.376"
			timeRelativeToTestModuleStartTime="00:09.387"
			timeWallClock="11:27:17"
			time="00:09.376"
			level="Info"
			category="Mouse">
			<message>
				Mouse Left Up item 'CFRAME2.Client' at 461;165.
			</message>
			<metainfo
				type="repoitem"
				path="/form[@title~'^C\.FRAME\ 2\ \ \ \ \ \ \ \ \ \ \ \ \ \ \ \ ']/container[2]/container[@accessiblerole='Client']"
				fullname="webcamnewRepository.CFRAME2.Client"
				id="c1657e212cc746fe89af805342ad9a76"
				timeout="60000"
				codefile="C:\Users\PG2137\Documents\Ranorex\RanorexStudio Projects\webcamnew\webcamnew\Webcam.vb"
				codeline="108"
				itemindex="7"
				loglvl="Info">
			</metainfo>
		</item>
		<item
			timeRelativeToTestSuiteStartTime="00:10.301"
			timeRelativeToTestModuleStartTime="00:10.312"
			timeWallClock="11:27:18"
			time="00:10.301"
			level="Info"
			category="Mouse">
			<message>
				Mouse Left Click item 'CFRAME2.Client' at 461;165.
			</message>
			<metainfo
				type="repoitem"
				path="/form[@title~'^C\.FRAME\ 2\ \ \ \ \ \ \ \ \ \ \ \ \ \ \ \ ']/container[2]/container[@accessiblerole='Client']"
				fullname="webcamnewRepository.CFRAME2.Client"
				id="c1657e212cc746fe89af805342ad9a76"
				timeout="60000"
				codefile="C:\Users\PG2137\Documents\Ranorex\RanorexStudio Projects\webcamnew\webcamnew\Webcam.vb"
				codeline="113"
				itemindex="8"
				loglvl="Info">
			</metainfo>
		</item>
		<item
			timeRelativeToTestSuiteStartTime="00:11.342"
			timeRelativeToTestModuleStartTime="00:11.353"
			timeWallClock="11:27:19"
			time="00:11.342"
			level="Info"
			category="Mouse">
			<message>
				Mouse Scroll Vertical by -120 units.
			</message>
			<metainfo
				itemindex="9"
				codefile="C:\Users\PG2137\Documents\Ranorex\RanorexStudio Projects\webcamnew\webcamnew\Webcam.vb"
				codeline="117"
				loglvl="Info">
			</metainfo>
		</item>
		<item
			timeRelativeToTestSuiteStartTime="00:11.857"
			timeRelativeToTestModuleStartTime="00:11.868"
			timeWallClock="11:27:20"
			time="00:11.857"
			level="Info"
			category="Mouse">
			<message>
				Mouse Left Click item 'CFRAME2.List.VideoWidget' at 34;13.
			</message>
			<metainfo
				type="repoitem"
				path="/form[@title~'^C\.FRAME\ 2\ \ \ \ \ \ \ \ \ \ \ \ \ \ \ \ ']/container[1]//list[@accessiblerole='List']/listitem[@accessiblename='VideoWidget']"
				fullname="webcamnewRepository.CFRAME2.List.VideoWidget"
				id="47321c04bba640d89065f337dac698b1"
				timeout="90000"
				codefile="C:\Users\PG2137\Documents\Ranorex\RanorexStudio Projects\webcamnew\webcamnew\Webcam.vb"
				codeline="121"
				itemindex="10"
				loglvl="Info">
			</metainfo>
		</item>
		<item
			timeRelativeToTestSuiteStartTime="00:12.955"
			timeRelativeToTestModuleStartTime="00:12.966"
			timeWallClock="11:27:21"
			time="00:12.955"
			level="Info"
			category="Mouse">
			<message>
				Mouse Left Down item 'CFRAME2.List.VideoWidget' at 35;6.
			</message>
			<metainfo
				type="repoitem"
				path="/form[@title~'^C\.FRAME\ 2\ \ \ \ \ \ \ \ \ \ \ \ \ \ \ \ ']/container[1]//list[@accessiblerole='List']/listitem[@accessiblename='VideoWidget']"
				fullname="webcamnewRepository.CFRAME2.List.VideoWidget"
				id="47321c04bba640d89065f337dac698b1"
				timeout="90000"
				codefile="C:\Users\PG2137\Documents\Ranorex\RanorexStudio Projects\webcamnew\webcamnew\Webcam.vb"
				codeline="125"
				itemindex="11"
				loglvl="Info">
			</metainfo>
		</item>
		<item
			timeRelativeToTestSuiteStartTime="00:13.646"
			timeRelativeToTestModuleStartTime="00:13.657"
			timeWallClock="11:27:21"
			time="00:13.646"
			level="Info"
			category="Mouse">
			<message>
				Mouse Left Move item 'CFRAME2.List.VideoWidget' at 43;-2.
			</message>
			<metainfo
				type="repoitem"
				path="/form[@title~'^C\.FRAME\ 2\ \ \ \ \ \ \ \ \ \ \ \ \ \ \ \ ']/container[1]//list[@accessiblerole='List']/listitem[@accessiblename='VideoWidget']"
				fullname="webcamnewRepository.CFRAME2.List.VideoWidget"
				id="47321c04bba640d89065f337dac698b1"
				timeout="90000"
				codefile="C:\Users\PG2137\Documents\Ranorex\RanorexStudio Projects\webcamnew\webcamnew\Webcam.vb"
				codeline="130"
				itemindex="12"
				loglvl="Info">
			</metainfo>
		</item>
		<item
			timeRelativeToTestSuiteStartTime="00:13.844"
			timeRelativeToTestModuleStartTime="00:13.855"
			timeWallClock="11:27:22"
			time="00:13.844"
			level="Warn"
			category="MoveTo">
			<message>
				The mouse action was performed outside the boundaries of the assigned UI element.<br/><a class="thickbox" style="padding-right:8px" rel="module" href=".\Webcam20_f0ded21f_rxlog.jpg"><img src=".\Webcam20_f0ded21f_rxlog_thumb.jpg" alt="Screenshot"/></a>
			</message>
			<metainfo
				codefile="C:\Users\PG2137\Documents\Ranorex\RanorexStudio Projects\webcamnew\webcamnew\Webcam.vb"
				codeline="131"
				loglvl="Warn">
			</metainfo>
		</item>
		<item
			timeRelativeToTestSuiteStartTime="00:14.351"
			timeRelativeToTestModuleStartTime="00:14.362"
			timeWallClock="11:27:22"
			time="00:14.351"
			level="Info"
			category="Mouse">
			<message>
				Mouse Left Up item 'CFRAME2.Client' at 971;151.
			</message>
			<metainfo
				type="repoitem"
				path="/form[@title~'^C\.FRAME\ 2\ \ \ \ \ \ \ \ \ \ \ \ \ \ \ \ ']/container[2]/container[@accessiblerole='Client']"
				fullname="webcamnewRepository.CFRAME2.Client"
				id="c1657e212cc746fe89af805342ad9a76"
				timeout="60000"
				codefile="C:\Users\PG2137\Documents\Ranorex\RanorexStudio Projects\webcamnew\webcamnew\Webcam.vb"
				codeline="134"
				itemindex="13"
				loglvl="Info">
			</metainfo>
		</item>
		<item
			timeRelativeToTestSuiteStartTime="00:15.198"
			timeRelativeToTestModuleStartTime="00:15.209"
			timeWallClock="11:27:23"
			time="00:15.198"
			level="Info"
			category="Mouse">
			<message>
				Mouse Left Click item 'CFRAME2.Client' at 496;151.
			</message>
			<metainfo
				type="repoitem"
				path="/form[@title~'^C\.FRAME\ 2\ \ \ \ \ \ \ \ \ \ \ \ \ \ \ \ ']/container[2]/container[@accessiblerole='Client']"
				fullname="webcamnewRepository.CFRAME2.Client"
				id="c1657e212cc746fe89af805342ad9a76"
				timeout="60000"
				codefile="C:\Users\PG2137\Documents\Ranorex\RanorexStudio Projects\webcamnew\webcamnew\Webcam.vb"
				codeline="139"
				itemindex="14"
				loglvl="Info">
			</metainfo>
		</item>
		<item
			timeRelativeToTestSuiteStartTime="00:16.247"
			timeRelativeToTestModuleStartTime="00:16.258"
			timeWallClock="11:27:24"
			time="00:16.247"
			level="Info"
			category="Mouse">
			<message>
				Mouse Left Down item 'CFRAME2.Client' at 838;129.
			</message>
			<metainfo
				type="repoitem"
				path="/form[@title~'^C\.FRAME\ 2\ \ \ \ \ \ \ \ \ \ \ \ \ \ \ \ ']/container[2]/container[@accessiblerole='Client']"
				fullname="webcamnewRepository.CFRAME2.Client"
				id="c1657e212cc746fe89af805342ad9a76"
				timeout="60000"
				codefile="C:\Users\PG2137\Documents\Ranorex\RanorexStudio Projects\webcamnew\webcamnew\Webcam.vb"
				codeline="143"
				itemindex="15"
				loglvl="Info">
			</metainfo>
		</item>
		<item
			timeRelativeToTestSuiteStartTime="00:17.320"
			timeRelativeToTestModuleStartTime="00:17.331"
			timeWallClock="11:27:25"
			time="00:17.320"
			level="Info"
			category="Mouse">
			<message>
				Mouse Left Up item 'CFRAME2.Client' at 827;169.
			</message>
			<metainfo
				type="repoitem"
				path="/form[@title~'^C\.FRAME\ 2\ \ \ \ \ \ \ \ \ \ \ \ \ \ \ \ ']/container[2]/container[@accessiblerole='Client']"
				fullname="webcamnewRepository.CFRAME2.Client"
				id="c1657e212cc746fe89af805342ad9a76"
				timeout="60000"
				codefile="C:\Users\PG2137\Documents\Ranorex\RanorexStudio Projects\webcamnew\webcamnew\Webcam.vb"
				codeline="148"
				itemindex="16"
				loglvl="Info">
			</metainfo>
		</item>
		<item
			timeRelativeToTestSuiteStartTime="00:18.029"
			timeRelativeToTestModuleStartTime="00:18.040"
			timeWallClock="11:27:26"
			time="00:18.029"
			level="Info"
			category="Mouse">
			<message>
				Mouse Left Click item 'CFRAME2.Client' at 827;119.
			</message>
			<metainfo
				type="repoitem"
				path="/form[@title~'^C\.FRAME\ 2\ \ \ \ \ \ \ \ \ \ \ \ \ \ \ \ ']/container[2]/container[@accessiblerole='Client']"
				fullname="webcamnewRepository.CFRAME2.Client"
				id="c1657e212cc746fe89af805342ad9a76"
				timeout="60000"
				codefile="C:\Users\PG2137\Documents\Ranorex\RanorexStudio Projects\webcamnew\webcamnew\Webcam.vb"
				codeline="153"
				itemindex="17"
				loglvl="Info">
			</metainfo>
		</item>
		<item
			timeRelativeToTestSuiteStartTime="00:19.021"
			timeRelativeToTestModuleStartTime="00:19.032"
			timeWallClock="11:27:27"
			time="00:19.021"
			level="Info"
			category="Mouse">
			<message>
				Mouse Left Click item 'CFRAME2.Client' at 497;274.
			</message>
			<metainfo
				type="repoitem"
				path="/form[@title~'^C\.FRAME\ 2\ \ \ \ \ \ \ \ \ \ \ \ \ \ \ \ ']/container[2]/container[@accessiblerole='Client']"
				fullname="webcamnewRepository.CFRAME2.Client"
				id="c1657e212cc746fe89af805342ad9a76"
				timeout="60000"
				codefile="C:\Users\PG2137\Documents\Ranorex\RanorexStudio Projects\webcamnew\webcamnew\Webcam.vb"
				codeline="157"
				itemindex="18"
				loglvl="Info">
			</metainfo>
		</item>
		<item
			timeRelativeToTestSuiteStartTime="00:20.119"
			timeRelativeToTestModuleStartTime="00:20.130"
			timeWallClock="11:27:28"
			time="00:20.119"
			level="Info"
			category="Mouse">
			<message>
				Mouse Left Click item 'CFRAME2.Client' at 681;275.
			</message>
			<metainfo
				type="repoitem"
				path="/form[@title~'^C\.FRAME\ 2\ \ \ \ \ \ \ \ \ \ \ \ \ \ \ \ ']/container[2]/container[@accessiblerole='Client']"
				fullname="webcamnewRepository.CFRAME2.Client"
				id="c1657e212cc746fe89af805342ad9a76"
				timeout="60000"
				codefile="C:\Users\PG2137\Documents\Ranorex\RanorexStudio Projects\webcamnew\webcamnew\Webcam.vb"
				codeline="161"
				itemindex="19"
				loglvl="Info">
			</metainfo>
		</item>
		<item
			timeRelativeToTestSuiteStartTime="00:21.215"
			timeRelativeToTestModuleStartTime="00:21.226"
			timeWallClock="11:27:29"
			time="00:21.215"
			level="Info"
			category="Mouse">
			<message>
				Mouse Left Click item 'CFRAME2.Client' at 271;235.
			</message>
			<metainfo
				type="repoitem"
				path="/form[@title~'^C\.FRAME\ 2\ \ \ \ \ \ \ \ \ \ \ \ \ \ \ \ ']/container[2]/container[@accessiblerole='Client']"
				fullname="webcamnewRepository.CFRAME2.Client"
				id="c1657e212cc746fe89af805342ad9a76"
				timeout="60000"
				codefile="C:\Users\PG2137\Documents\Ranorex\RanorexStudio Projects\webcamnew\webcamnew\Webcam.vb"
				codeline="165"
				itemindex="20"
				loglvl="Info">
			</metainfo>
		</item>
		<item
			timeRelativeToTestSuiteStartTime="00:22.254"
			timeRelativeToTestModuleStartTime="00:22.265"
			timeWallClock="11:27:30"
			time="00:22.254"
			level="Info"
			category="Mouse">
			<message>
				Mouse Left DoubleClick item 'CFRAME2.Client' at 299;228.
			</message>
			<metainfo
				type="repoitem"
				path="/form[@title~'^C\.FRAME\ 2\ \ \ \ \ \ \ \ \ \ \ \ \ \ \ \ ']/container[2]/container[@accessiblerole='Client']"
				fullname="webcamnewRepository.CFRAME2.Client"
				id="c1657e212cc746fe89af805342ad9a76"
				timeout="60000"
				codefile="C:\Users\PG2137\Documents\Ranorex\RanorexStudio Projects\webcamnew\webcamnew\Webcam.vb"
				codeline="169"
				itemindex="21"
				loglvl="Info">
			</metainfo>
		</item>
		<item
			timeRelativeToTestSuiteStartTime="00:23.406"
			timeRelativeToTestModuleStartTime="00:23.417"
			timeWallClock="11:27:31"
			time="00:23.406"
			level="Info"
			category="Mouse">
			<message>
				Mouse Left DoubleClick item 'CFRAME2.Client' at 299;247.
			</message>
			<metainfo
				type="repoitem"
				path="/form[@title~'^C\.FRAME\ 2\ \ \ \ \ \ \ \ \ \ \ \ \ \ \ \ ']/container[2]/container[@accessiblerole='Client']"
				fullname="webcamnewRepository.CFRAME2.Client"
				id="c1657e212cc746fe89af805342ad9a76"
				timeout="60000"
				codefile="C:\Users\PG2137\Documents\Ranorex\RanorexStudio Projects\webcamnew\webcamnew\Webcam.vb"
				codeline="173"
				itemindex="22"
				loglvl="Info">
			</metainfo>
		</item>
		<item
			timeRelativeToTestSuiteStartTime="00:24.413"
			timeRelativeToTestModuleStartTime="00:24.424"
			timeWallClock="11:27:32"
			time="00:24.413"
			level="Info"
			category="Mouse">
			<message>
				Mouse Left Click item 'CFRAME2.Reload' at 33;16.
			</message>
			<metainfo
				type="repoitem"
				path="/form[@title~'^C\.FRAME\ 2\ \ \ \ \ \ \ \ \ \ \ \ \ \ \ \ ']/?/?/button[@accessiblename='Reload']"
				fullname="webcamnewRepository.CFRAME2.Reload"
				id="2c014d55c7bc4392be8a6af103952ddf"
				timeout="60000"
				codefile="C:\Users\PG2137\Documents\Ranorex\RanorexStudio Projects\webcamnew\webcamnew\Webcam.vb"
				codeline="177"
				itemindex="23"
				loglvl="Info">
			</metainfo>
		</item>
	</activity>
</report>
