﻿<?xml version="1.0" encoding="utf-8"?>
<report
	progress="">
	<activity
		result="Success"
		duration="0ms"
		durationms="0"
		type="root"
		rid="23857358e8d06a08"
		totalerrorcount="0"
		totalwarningcount="1"
		totalsuccesstestcasecount="0"
		totalfailedtestcasecount="0"
		totalblockedtestcasecount="0"
		totalsuccesscount="0"
		totalfailedcount="0"
		totalblockedcount="0"
		user="PG2137"
		rxversion="7.1.1.0"
		host="EGSPL-AUR324"
		osversion="Windows 10 64bit"
		runtimeversion="4.0.30319.42000"
		procarch="32bit"
		oslanguage="en-US"
		dtnlanguage="en-US"
		screenresolution="4800x1350"
		timestamp="5/23/2018 3:04:23 PM"
		timestampiso="2018-05-23T09:34:23"
		endtime="5/23/2018 3:05:01 PM"
		timeoutfactor="1"
		module="Recording1">
		<detail>
			Recording1
		</detail>
		<item
			timeRelativeToTestSuiteStartTime="00:00.562"
			timeRelativeToTestModuleStartTime="00:00.570"
			timeWallClock="15:04:23"
			time="00:00.562"
			level="Warn"
			category="General">
			<message>
				Different display DPI scaling values are in use. Please make sure all connected displays have the same DPI scaling value.<br/>The following website provides more information on this technology limitation:<br/>https://www.ranorex.com/help/v7.1.1/technology-instrumentation/general-troubleshooting#GeneralTroubleshooting-DifferentDisplayDPIScalingValues<br/>(This message is only shown once per report.)
			</message>
			<metainfo
				limitationName="DifferentDpi"
				showInProgressDialog="False"
				loglvl="Warn">
			</metainfo>
		</item>
		<varbindings>
		</varbindings>
		<item
			timeRelativeToTestSuiteStartTime="00:00.626"
			timeRelativeToTestModuleStartTime="00:00.634"
			timeWallClock="15:04:23"
			time="00:00.626"
			level="Info"
			category="Application">
			<message>
				Run application 'C:\CMORE\CFrame2.1\bin\release\CFrame2.exe' with arguments '' in normal mode.
			</message>
			<metainfo
				itemindex="0"
				codefile="c:\Users\PG2137\Documents\Ranorex\RanorexStudio Projects\trial\trial\Recording1.cs"
				codeline="82"
				loglvl="Info">
			</metainfo>
		</item>
		<item
			timeRelativeToTestSuiteStartTime="00:00.685"
			timeRelativeToTestModuleStartTime="00:00.693"
			timeWallClock="15:04:23"
			time="00:00.685"
			level="Info"
			category="Mouse">
			<message>
				Mouse Left Click item 'CFRAME2.ClearConfig' at 51;18.
			</message>
			<metainfo
				type="repoitem"
				path="/form[@title~'^C\.FRAME\ 2\ \ \ \ \ \ \ \ \ \ \ \ \ \ \ \ ']/?/?/button[@accessiblename='Clear Config']"
				fullname="trialRepository.CFRAME2.ClearConfig"
				id="e5e23f1fda5847dd886f1b842eab4a76"
				timeout="60000"
				codefile="c:\Users\PG2137\Documents\Ranorex\RanorexStudio Projects\trial\trial\Recording1.cs"
				codeline="86"
				itemindex="1"
				loglvl="Info">
			</metainfo>
		</item>
		<item
			timeRelativeToTestSuiteStartTime="00:03.415"
			timeRelativeToTestModuleStartTime="00:03.422"
			timeWallClock="15:04:26"
			time="00:03.415"
			level="Info"
			category="Mouse">
			<message>
				Mouse Left Click item 'CFRAME2.File' at 31;15.
			</message>
			<metainfo
				type="repoitem"
				path="/form[@title~'^C\.FRAME\ 2\ \ \ \ \ \ \ \ \ \ \ \ \ \ \ \ ']/?/?/menuitem[@accessiblename='File']"
				fullname="trialRepository.CFRAME2.File"
				id="113cf58ef27940faba481912a90c4579"
				timeout="60000"
				codefile="c:\Users\PG2137\Documents\Ranorex\RanorexStudio Projects\trial\trial\Recording1.cs"
				codeline="90"
				itemindex="2"
				loglvl="Info">
			</metainfo>
		</item>
		<item
			timeRelativeToTestSuiteStartTime="00:04.682"
			timeRelativeToTestModuleStartTime="00:04.690"
			timeWallClock="15:04:27"
			time="00:04.682"
			level="Info"
			category="Mouse">
			<message>
				Mouse Left Click item 'CFRAME.OpenConfiguration' at 73;20.
			</message>
			<metainfo
				type="repoitem"
				path="/form[@title='C.FRAME']/?/?/menuitem[@accessiblename='Open Configuration']"
				fullname="trialRepository.CFRAME.OpenConfiguration"
				id="5e20e3b8039a41f7b4c51d3786c7e411"
				timeout="60000"
				codefile="c:\Users\PG2137\Documents\Ranorex\RanorexStudio Projects\trial\trial\Recording1.cs"
				codeline="94"
				itemindex="3"
				loglvl="Info">
			</metainfo>
		</item>
		<item
			timeRelativeToTestSuiteStartTime="00:05.463"
			timeRelativeToTestModuleStartTime="00:05.470"
			timeWallClock="15:04:28"
			time="00:05.463"
			level="Info"
			category="Mouse">
			<message>
				Mouse Left Click item 'OpenConfiguration.Desktop' at 48;5.
			</message>
			<metainfo
				type="repoitem"
				path="/form[@title='Open Configuration']/element[@class='DUIViewWndClassName']/container/element[1]/?/?/tree[@controlid='100']/?/?/treeitem[@text='This PC']/treeitem[@text='Desktop']"
				fullname="trialRepository.OpenConfiguration.Desktop"
				id="2b8b54bd73cf4c1796161d985e42d174"
				timeout="60000"
				codefile="c:\Users\PG2137\Documents\Ranorex\RanorexStudio Projects\trial\trial\Recording1.cs"
				codeline="98"
				itemindex="4"
				loglvl="Info">
			</metainfo>
		</item>
		<item
			timeRelativeToTestSuiteStartTime="00:06.746"
			timeRelativeToTestModuleStartTime="00:06.754"
			timeWallClock="15:04:29"
			time="00:06.746"
			level="Info"
			category="Mouse">
			<message>
				Mouse Left Click item 'OpenConfiguration.BaselineImage' at 18;77.
			</message>
			<metainfo
				type="repoitem"
				path="/form[@title='Open Configuration']/element[@class='DUIViewWndClassName']//container[@caption='ShellView']/?/?/listitem[@automationid='7']/picture[@automationid='BaselineImage']"
				fullname="trialRepository.OpenConfiguration.BaselineImage"
				id="542318455a8b4a489a879533198c447b"
				timeout="60000"
				codefile="c:\Users\PG2137\Documents\Ranorex\RanorexStudio Projects\trial\trial\Recording1.cs"
				codeline="102"
				itemindex="5"
				loglvl="Info">
			</metainfo>
		</item>
		<item
			timeRelativeToTestSuiteStartTime="00:07.859"
			timeRelativeToTestModuleStartTime="00:07.867"
			timeWallClock="15:04:31"
			time="00:07.859"
			level="Info"
			category="Mouse">
			<message>
				Mouse Left Click item 'OpenConfiguration.ButtonOpen' at 61;13.
			</message>
			<metainfo
				type="repoitem"
				path="/form[@title='Open Configuration']/button[@text='&amp;Open']"
				fullname="trialRepository.OpenConfiguration.ButtonOpen"
				id="2940952bfcc04082ad7bebfd164038e0"
				timeout="60000"
				codefile="c:\Users\PG2137\Documents\Ranorex\RanorexStudio Projects\trial\trial\Recording1.cs"
				codeline="106"
				itemindex="6"
				loglvl="Info">
			</metainfo>
		</item>
		<item
			timeRelativeToTestSuiteStartTime="00:08.549"
			timeRelativeToTestModuleStartTime="00:08.557"
			timeWallClock="15:04:31"
			time="00:08.549"
			level="Info"
			category="Mouse">
			<message>
				Mouse Scroll Vertical by -360 units.
			</message>
			<metainfo
				itemindex="7"
				codefile="c:\Users\PG2137\Documents\Ranorex\RanorexStudio Projects\trial\trial\Recording1.cs"
				codeline="110"
				loglvl="Info">
			</metainfo>
		</item>
		<item
			timeRelativeToTestSuiteStartTime="00:09.060"
			timeRelativeToTestModuleStartTime="00:09.068"
			timeWallClock="15:04:32"
			time="00:09.060"
			level="Info"
			category="Mouse">
			<message>
				Mouse Left Down item 'CFRAME2.Client' at 975;140.
			</message>
			<metainfo
				type="repoitem"
				path="/form[@title~'^C\.FRAME\ 2\ \ \ \ \ \ \ \ \ \ \ \ \ \ \ \ ']/container[3]/container[@accessiblerole='Client']"
				fullname="trialRepository.CFRAME2.Client"
				id="50ec70c3e6664cd2b9f3f26aa5de9b43"
				timeout="60000"
				codefile="c:\Users\PG2137\Documents\Ranorex\RanorexStudio Projects\trial\trial\Recording1.cs"
				codeline="114"
				itemindex="8"
				loglvl="Info">
			</metainfo>
		</item>
		<item
			timeRelativeToTestSuiteStartTime="00:09.687"
			timeRelativeToTestModuleStartTime="00:09.695"
			timeWallClock="15:04:32"
			time="00:09.687"
			level="Info"
			category="Mouse">
			<message>
				Mouse Left Up item 'CFRAME2.Client' at 609;130.
			</message>
			<metainfo
				type="repoitem"
				path="/form[@title~'^C\.FRAME\ 2\ \ \ \ \ \ \ \ \ \ \ \ \ \ \ \ ']/container[3]/container[@accessiblerole='Client']"
				fullname="trialRepository.CFRAME2.Client"
				id="50ec70c3e6664cd2b9f3f26aa5de9b43"
				timeout="60000"
				codefile="c:\Users\PG2137\Documents\Ranorex\RanorexStudio Projects\trial\trial\Recording1.cs"
				codeline="119"
				itemindex="9"
				loglvl="Info">
			</metainfo>
		</item>
		<item
			timeRelativeToTestSuiteStartTime="00:10.370"
			timeRelativeToTestModuleStartTime="00:10.377"
			timeWallClock="15:04:33"
			time="00:10.370"
			level="Info"
			category="Mouse">
			<message>
				Mouse Left DoubleClick item 'CFRAME2.Client' at 314;177.
			</message>
			<metainfo
				type="repoitem"
				path="/form[@title~'^C\.FRAME\ 2\ \ \ \ \ \ \ \ \ \ \ \ \ \ \ \ ']/container[3]/container[@accessiblerole='Client']"
				fullname="trialRepository.CFRAME2.Client"
				id="50ec70c3e6664cd2b9f3f26aa5de9b43"
				timeout="60000"
				codefile="c:\Users\PG2137\Documents\Ranorex\RanorexStudio Projects\trial\trial\Recording1.cs"
				codeline="124"
				itemindex="10"
				loglvl="Info">
			</metainfo>
		</item>
		<item
			timeRelativeToTestSuiteStartTime="00:11.330"
			timeRelativeToTestModuleStartTime="00:11.337"
			timeWallClock="15:04:34"
			time="00:11.330"
			level="Info"
			category="Mouse">
			<message>
				Mouse Left DoubleClick item 'CFRAME2.Client' at 331;195.
			</message>
			<metainfo
				type="repoitem"
				path="/form[@title~'^C\.FRAME\ 2\ \ \ \ \ \ \ \ \ \ \ \ \ \ \ \ ']/container[3]/container[@accessiblerole='Client']"
				fullname="trialRepository.CFRAME2.Client"
				id="50ec70c3e6664cd2b9f3f26aa5de9b43"
				timeout="60000"
				codefile="c:\Users\PG2137\Documents\Ranorex\RanorexStudio Projects\trial\trial\Recording1.cs"
				codeline="128"
				itemindex="11"
				loglvl="Info">
			</metainfo>
		</item>
		<item
			timeRelativeToTestSuiteStartTime="00:12.306"
			timeRelativeToTestModuleStartTime="00:12.314"
			timeWallClock="15:04:35"
			time="00:12.306"
			level="Info"
			category="Mouse">
			<message>
				Mouse Left Down item 'CFRAME2' at 644;783.
			</message>
			<metainfo
				type="repoitem"
				path="/form[@title~'^C\.FRAME\ 2\ \ \ \ \ \ \ \ \ \ \ \ \ \ \ \ ']"
				fullname="trialRepository.CFRAME2.Self"
				id="9591cf7ca8064121b3cb7639c4832b11"
				timeout="30000"
				codefile="c:\Users\PG2137\Documents\Ranorex\RanorexStudio Projects\trial\trial\Recording1.cs"
				codeline="132"
				itemindex="12"
				loglvl="Info">
			</metainfo>
		</item>
		<item
			timeRelativeToTestSuiteStartTime="00:12.840"
			timeRelativeToTestModuleStartTime="00:12.848"
			timeWallClock="15:04:36"
			time="00:12.840"
			level="Info"
			category="Mouse">
			<message>
				Mouse Left Up item 'CFRAME2' at 657;668.
			</message>
			<metainfo
				type="repoitem"
				path="/form[@title~'^C\.FRAME\ 2\ \ \ \ \ \ \ \ \ \ \ \ \ \ \ \ ']"
				fullname="trialRepository.CFRAME2.Self"
				id="9591cf7ca8064121b3cb7639c4832b11"
				timeout="30000"
				codefile="c:\Users\PG2137\Documents\Ranorex\RanorexStudio Projects\trial\trial\Recording1.cs"
				codeline="137"
				itemindex="13"
				loglvl="Info">
			</metainfo>
		</item>
		<item
			timeRelativeToTestSuiteStartTime="00:13.438"
			timeRelativeToTestModuleStartTime="00:13.446"
			timeWallClock="15:04:36"
			time="00:13.438"
			level="Info"
			category="Mouse">
			<message>
				Mouse Left Click item 'CFRAME2.File' at 23;22.
			</message>
			<metainfo
				type="repoitem"
				path="/form[@title~'^C\.FRAME\ 2\ \ \ \ \ \ \ \ \ \ \ \ \ \ \ \ ']/?/?/menuitem[@accessiblename='File']"
				fullname="trialRepository.CFRAME2.File"
				id="113cf58ef27940faba481912a90c4579"
				timeout="60000"
				codefile="c:\Users\PG2137\Documents\Ranorex\RanorexStudio Projects\trial\trial\Recording1.cs"
				codeline="142"
				itemindex="14"
				loglvl="Info">
			</metainfo>
		</item>
		<item
			timeRelativeToTestSuiteStartTime="00:14.954"
			timeRelativeToTestModuleStartTime="00:14.962"
			timeWallClock="15:04:38"
			time="00:14.954"
			level="Info"
			category="Mouse">
			<message>
				Mouse Left Click item 'CFRAME.SaveConfiguration' at 52;11.
			</message>
			<metainfo
				type="repoitem"
				path="/form[@title='C.FRAME']/?/?/menuitem[@accessiblename='Save Configuration']"
				fullname="trialRepository.CFRAME.SaveConfiguration"
				id="65baea2825c74e5a9385a2ef8c27165b"
				timeout="60000"
				codefile="c:\Users\PG2137\Documents\Ranorex\RanorexStudio Projects\trial\trial\Recording1.cs"
				codeline="146"
				itemindex="15"
				loglvl="Info">
			</metainfo>
		</item>
		<item
			timeRelativeToTestSuiteStartTime="00:15.721"
			timeRelativeToTestModuleStartTime="00:15.729"
			timeWallClock="15:04:38"
			time="00:15.721"
			level="Info"
			category="Mouse">
			<message>
				Mouse Left DoubleClick item 'SaveConfiguration.BaselineImage' at 37;54.
			</message>
			<metainfo
				type="repoitem"
				path="/form[@title='Save Configuration']/element[@class='DUIViewWndClassName']/container/element[3]//listitem[@automationid='7']/picture[@automationid='BaselineImage']"
				fullname="trialRepository.SaveConfiguration.BaselineImage"
				id="c776b1f519b14aeea2f84c8efc08635b"
				timeout="60000"
				codefile="c:\Users\PG2137\Documents\Ranorex\RanorexStudio Projects\trial\trial\Recording1.cs"
				codeline="150"
				itemindex="16"
				loglvl="Info">
			</metainfo>
		</item>
		<item
			timeRelativeToTestSuiteStartTime="00:17.172"
			timeRelativeToTestModuleStartTime="00:17.180"
			timeWallClock="15:04:40"
			time="00:17.172"
			level="Info"
			category="Mouse">
			<message>
				Mouse Left Click item 'ConfirmSaveAs.ButtonYes' at 37;13.
			</message>
			<metainfo
				type="repoitem"
				path="/form[@title='Confirm Save As']/?/?/element[@instance='0']/button[@text='&amp;Yes']"
				fullname="trialRepository.ConfirmSaveAs.ButtonYes"
				id="7aec141164c247ee80ecdbb0df6b4738"
				timeout="60000"
				codefile="c:\Users\PG2137\Documents\Ranorex\RanorexStudio Projects\trial\trial\Recording1.cs"
				codeline="154"
				itemindex="17"
				loglvl="Info">
			</metainfo>
		</item>
		<item
			timeRelativeToTestSuiteStartTime="00:18.314"
			timeRelativeToTestModuleStartTime="00:18.322"
			timeWallClock="15:04:41"
			time="00:18.314"
			level="Info"
			category="Mouse">
			<message>
				Mouse Left Click item 'CFRAME2.Reload' at 35;16.
			</message>
			<metainfo
				type="repoitem"
				path="/form[@title~'^C\.FRAME\ 2\ \ \ \ \ \ \ \ \ \ \ \ \ \ \ \ ']/?/?/button[@accessiblename='Reload']"
				fullname="trialRepository.CFRAME2.Reload"
				id="f9e1be06616b4e03b659ab11fb853be7"
				timeout="60000"
				codefile="c:\Users\PG2137\Documents\Ranorex\RanorexStudio Projects\trial\trial\Recording1.cs"
				codeline="158"
				itemindex="18"
				loglvl="Info">
			</metainfo>
		</item>
		<item
			timeRelativeToTestSuiteStartTime="00:19.912"
			timeRelativeToTestModuleStartTime="00:19.919"
			timeWallClock="15:04:43"
			time="00:19.912"
			level="Info"
			category="Mouse">
			<message>
				Mouse Left Click item 'CFRAME2.ClearConfig' at 68;18.
			</message>
			<metainfo
				type="repoitem"
				path="/form[@title~'^C\.FRAME\ 2\ \ \ \ \ \ \ \ \ \ \ \ \ \ \ \ ']/?/?/button[@accessiblename='Clear Config']"
				fullname="trialRepository.CFRAME2.ClearConfig"
				id="e5e23f1fda5847dd886f1b842eab4a76"
				timeout="60000"
				codefile="c:\Users\PG2137\Documents\Ranorex\RanorexStudio Projects\trial\trial\Recording1.cs"
				codeline="162"
				itemindex="19"
				loglvl="Info">
			</metainfo>
		</item>
		<item
			timeRelativeToTestSuiteStartTime="00:21.536"
			timeRelativeToTestModuleStartTime="00:21.544"
			timeWallClock="15:04:44"
			time="00:21.536"
			level="Info"
			category="Mouse">
			<message>
				Mouse Scroll Vertical by -840 units.
			</message>
			<metainfo
				itemindex="20"
				codefile="c:\Users\PG2137\Documents\Ranorex\RanorexStudio Projects\trial\trial\Recording1.cs"
				codeline="166"
				loglvl="Info">
			</metainfo>
		</item>
		<item
			timeRelativeToTestSuiteStartTime="00:22.048"
			timeRelativeToTestModuleStartTime="00:22.056"
			timeWallClock="15:04:45"
			time="00:22.048"
			level="Info"
			category="Mouse">
			<message>
				Mouse Left Down item 'CFRAME2.Webcam' at 46;13.
			</message>
			<metainfo
				type="repoitem"
				path="/form[@title~'^C\.FRAME\ 2\ \ \ \ \ \ \ \ \ \ \ \ \ \ \ \ ']/container[2]//list[@accessiblerole='List']/listitem[@accessiblename='Webcam']"
				fullname="trialRepository.CFRAME2.Webcam"
				id="41a6aa98cda84e249e135e9db47df7bd"
				timeout="60000"
				codefile="c:\Users\PG2137\Documents\Ranorex\RanorexStudio Projects\trial\trial\Recording1.cs"
				codeline="170"
				itemindex="21"
				loglvl="Info">
			</metainfo>
		</item>
		<item
			timeRelativeToTestSuiteStartTime="00:22.771"
			timeRelativeToTestModuleStartTime="00:22.779"
			timeWallClock="15:04:46"
			time="00:22.771"
			level="Info"
			category="Mouse">
			<message>
				Mouse Left Move item 'CFRAME2.Webcam' at 54;5.
			</message>
			<metainfo
				type="repoitem"
				path="/form[@title~'^C\.FRAME\ 2\ \ \ \ \ \ \ \ \ \ \ \ \ \ \ \ ']/container[2]//list[@accessiblerole='List']/listitem[@accessiblename='Webcam']"
				fullname="trialRepository.CFRAME2.Webcam"
				id="41a6aa98cda84e249e135e9db47df7bd"
				timeout="60000"
				codefile="c:\Users\PG2137\Documents\Ranorex\RanorexStudio Projects\trial\trial\Recording1.cs"
				codeline="175"
				itemindex="22"
				loglvl="Info">
			</metainfo>
		</item>
		<item
			timeRelativeToTestSuiteStartTime="00:23.474"
			timeRelativeToTestModuleStartTime="00:23.482"
			timeWallClock="15:04:46"
			time="00:23.474"
			level="Info"
			category="Mouse">
			<message>
				Mouse Left Up item 'CFRAME2.Client' at 513;168.
			</message>
			<metainfo
				type="repoitem"
				path="/form[@title~'^C\.FRAME\ 2\ \ \ \ \ \ \ \ \ \ \ \ \ \ \ \ ']/container[3]/container[@accessiblerole='Client']"
				fullname="trialRepository.CFRAME2.Client"
				id="50ec70c3e6664cd2b9f3f26aa5de9b43"
				timeout="60000"
				codefile="c:\Users\PG2137\Documents\Ranorex\RanorexStudio Projects\trial\trial\Recording1.cs"
				codeline="179"
				itemindex="23"
				loglvl="Info">
			</metainfo>
		</item>
		<item
			timeRelativeToTestSuiteStartTime="00:24.106"
			timeRelativeToTestModuleStartTime="00:24.114"
			timeWallClock="15:04:47"
			time="00:24.106"
			level="Info"
			category="Mouse">
			<message>
				Mouse Left Click item 'CFRAME2.Client' at 513;168.
			</message>
			<metainfo
				type="repoitem"
				path="/form[@title~'^C\.FRAME\ 2\ \ \ \ \ \ \ \ \ \ \ \ \ \ \ \ ']/container[3]/container[@accessiblerole='Client']"
				fullname="trialRepository.CFRAME2.Client"
				id="50ec70c3e6664cd2b9f3f26aa5de9b43"
				timeout="60000"
				codefile="c:\Users\PG2137\Documents\Ranorex\RanorexStudio Projects\trial\trial\Recording1.cs"
				codeline="184"
				itemindex="24"
				loglvl="Info">
			</metainfo>
		</item>
		<item
			timeRelativeToTestSuiteStartTime="00:24.887"
			timeRelativeToTestModuleStartTime="00:24.895"
			timeWallClock="15:04:48"
			time="00:24.887"
			level="Info"
			category="Mouse">
			<message>
				Mouse Left Down item 'CFRAME2.VideoWidget' at 50;8.
			</message>
			<metainfo
				type="repoitem"
				path="/form[@title~'^C\.FRAME\ 2\ \ \ \ \ \ \ \ \ \ \ \ \ \ \ \ ']/container[2]//list[@accessiblerole='List']/listitem[@accessiblename='VideoWidget']"
				fullname="trialRepository.CFRAME2.VideoWidget"
				id="7a7e43ca9686475f80b75d7d78ec5b3c"
				timeout="60000"
				codefile="c:\Users\PG2137\Documents\Ranorex\RanorexStudio Projects\trial\trial\Recording1.cs"
				codeline="188"
				itemindex="25"
				loglvl="Info">
			</metainfo>
		</item>
		<item
			timeRelativeToTestSuiteStartTime="00:25.666"
			timeRelativeToTestModuleStartTime="00:25.673"
			timeWallClock="15:04:48"
			time="00:25.666"
			level="Info"
			category="Mouse">
			<message>
				Mouse Left Move item 'CFRAME2.VideoWidget' at 58;0.
			</message>
			<metainfo
				type="repoitem"
				path="/form[@title~'^C\.FRAME\ 2\ \ \ \ \ \ \ \ \ \ \ \ \ \ \ \ ']/container[2]//list[@accessiblerole='List']/listitem[@accessiblename='VideoWidget']"
				fullname="trialRepository.CFRAME2.VideoWidget"
				id="7a7e43ca9686475f80b75d7d78ec5b3c"
				timeout="60000"
				codefile="c:\Users\PG2137\Documents\Ranorex\RanorexStudio Projects\trial\trial\Recording1.cs"
				codeline="193"
				itemindex="26"
				loglvl="Info">
			</metainfo>
		</item>
		<item
			timeRelativeToTestSuiteStartTime="00:26.397"
			timeRelativeToTestModuleStartTime="00:26.405"
			timeWallClock="15:04:49"
			time="00:26.397"
			level="Info"
			category="Mouse">
			<message>
				Mouse Left Up item 'CFRAME2.Client' at 1032;183.
			</message>
			<metainfo
				type="repoitem"
				path="/form[@title~'^C\.FRAME\ 2\ \ \ \ \ \ \ \ \ \ \ \ \ \ \ \ ']/container[3]/container[@accessiblerole='Client']"
				fullname="trialRepository.CFRAME2.Client"
				id="50ec70c3e6664cd2b9f3f26aa5de9b43"
				timeout="60000"
				codefile="c:\Users\PG2137\Documents\Ranorex\RanorexStudio Projects\trial\trial\Recording1.cs"
				codeline="197"
				itemindex="27"
				loglvl="Info">
			</metainfo>
		</item>
		<item
			timeRelativeToTestSuiteStartTime="00:27.053"
			timeRelativeToTestModuleStartTime="00:27.060"
			timeWallClock="15:04:50"
			time="00:27.053"
			level="Info"
			category="Mouse">
			<message>
				Mouse Left Down item 'CFRAME2.Client' at 552;173.
			</message>
			<metainfo
				type="repoitem"
				path="/form[@title~'^C\.FRAME\ 2\ \ \ \ \ \ \ \ \ \ \ \ \ \ \ \ ']/container[3]/container[@accessiblerole='Client']"
				fullname="trialRepository.CFRAME2.Client"
				id="50ec70c3e6664cd2b9f3f26aa5de9b43"
				timeout="60000"
				codefile="c:\Users\PG2137\Documents\Ranorex\RanorexStudio Projects\trial\trial\Recording1.cs"
				codeline="202"
				itemindex="28"
				loglvl="Info">
			</metainfo>
		</item>
		<item
			timeRelativeToTestSuiteStartTime="00:27.720"
			timeRelativeToTestModuleStartTime="00:27.728"
			timeWallClock="15:04:50"
			time="00:27.720"
			level="Info"
			category="Mouse">
			<message>
				Mouse Left Up item 'CFRAME2.Client' at 550;160.
			</message>
			<metainfo
				type="repoitem"
				path="/form[@title~'^C\.FRAME\ 2\ \ \ \ \ \ \ \ \ \ \ \ \ \ \ \ ']/container[3]/container[@accessiblerole='Client']"
				fullname="trialRepository.CFRAME2.Client"
				id="50ec70c3e6664cd2b9f3f26aa5de9b43"
				timeout="60000"
				codefile="c:\Users\PG2137\Documents\Ranorex\RanorexStudio Projects\trial\trial\Recording1.cs"
				codeline="207"
				itemindex="29"
				loglvl="Info">
			</metainfo>
		</item>
		<item
			timeRelativeToTestSuiteStartTime="00:28.386"
			timeRelativeToTestModuleStartTime="00:28.394"
			timeWallClock="15:04:51"
			time="00:28.386"
			level="Info"
			category="Mouse">
			<message>
				Mouse Left Click item 'CFRAME2.Client' at 464;227.
			</message>
			<metainfo
				type="repoitem"
				path="/form[@title~'^C\.FRAME\ 2\ \ \ \ \ \ \ \ \ \ \ \ \ \ \ \ ']/container[3]/container[@accessiblerole='Client']"
				fullname="trialRepository.CFRAME2.Client"
				id="50ec70c3e6664cd2b9f3f26aa5de9b43"
				timeout="60000"
				codefile="c:\Users\PG2137\Documents\Ranorex\RanorexStudio Projects\trial\trial\Recording1.cs"
				codeline="212"
				itemindex="30"
				loglvl="Info">
			</metainfo>
		</item>
		<item
			timeRelativeToTestSuiteStartTime="00:29.209"
			timeRelativeToTestModuleStartTime="00:29.216"
			timeWallClock="15:04:52"
			time="00:29.209"
			level="Info"
			category="Mouse">
			<message>
				Mouse Left Click item 'CFRAME2.Client' at 751;223.
			</message>
			<metainfo
				type="repoitem"
				path="/form[@title~'^C\.FRAME\ 2\ \ \ \ \ \ \ \ \ \ \ \ \ \ \ \ ']/container[3]/container[@accessiblerole='Client']"
				fullname="trialRepository.CFRAME2.Client"
				id="50ec70c3e6664cd2b9f3f26aa5de9b43"
				timeout="60000"
				codefile="c:\Users\PG2137\Documents\Ranorex\RanorexStudio Projects\trial\trial\Recording1.cs"
				codeline="216"
				itemindex="31"
				loglvl="Info">
			</metainfo>
		</item>
		<item
			timeRelativeToTestSuiteStartTime="00:30.015"
			timeRelativeToTestModuleStartTime="00:30.023"
			timeWallClock="15:04:53"
			time="00:30.015"
			level="Info"
			category="Mouse">
			<message>
				Mouse Left DoubleClick item 'CFRAME2.Client' at 280;195.
			</message>
			<metainfo
				type="repoitem"
				path="/form[@title~'^C\.FRAME\ 2\ \ \ \ \ \ \ \ \ \ \ \ \ \ \ \ ']/container[3]/container[@accessiblerole='Client']"
				fullname="trialRepository.CFRAME2.Client"
				id="50ec70c3e6664cd2b9f3f26aa5de9b43"
				timeout="60000"
				codefile="c:\Users\PG2137\Documents\Ranorex\RanorexStudio Projects\trial\trial\Recording1.cs"
				codeline="220"
				itemindex="32"
				loglvl="Info">
			</metainfo>
		</item>
		<item
			timeRelativeToTestSuiteStartTime="00:30.931"
			timeRelativeToTestModuleStartTime="00:30.939"
			timeWallClock="15:04:54"
			time="00:30.931"
			level="Info"
			category="Mouse">
			<message>
				Mouse Scroll Vertical by -480 units.
			</message>
			<metainfo
				itemindex="33"
				codefile="c:\Users\PG2137\Documents\Ranorex\RanorexStudio Projects\trial\trial\Recording1.cs"
				codeline="224"
				loglvl="Info">
			</metainfo>
		</item>
		<item
			timeRelativeToTestSuiteStartTime="00:31.450"
			timeRelativeToTestModuleStartTime="00:31.458"
			timeWallClock="15:04:54"
			time="00:31.450"
			level="Info"
			category="Mouse">
			<message>
				Mouse Left Down item 'CFRAME2' at 1104;953.
			</message>
			<metainfo
				type="repoitem"
				path="/form[@title~'^C\.FRAME\ 2\ \ \ \ \ \ \ \ \ \ \ \ \ \ \ \ ']"
				fullname="trialRepository.CFRAME2.Self"
				id="9591cf7ca8064121b3cb7639c4832b11"
				timeout="30000"
				codefile="c:\Users\PG2137\Documents\Ranorex\RanorexStudio Projects\trial\trial\Recording1.cs"
				codeline="228"
				itemindex="34"
				loglvl="Info">
			</metainfo>
		</item>
		<item
			timeRelativeToTestSuiteStartTime="00:31.964"
			timeRelativeToTestModuleStartTime="00:31.972"
			timeWallClock="15:04:55"
			time="00:31.964"
			level="Info"
			category="Mouse">
			<message>
				Mouse Left Move item 'CFRAME2' at 1112;945.
			</message>
			<metainfo
				type="repoitem"
				path="/form[@title~'^C\.FRAME\ 2\ \ \ \ \ \ \ \ \ \ \ \ \ \ \ \ ']"
				fullname="trialRepository.CFRAME2.Self"
				id="9591cf7ca8064121b3cb7639c4832b11"
				timeout="30000"
				codefile="c:\Users\PG2137\Documents\Ranorex\RanorexStudio Projects\trial\trial\Recording1.cs"
				codeline="233"
				itemindex="35"
				loglvl="Info">
			</metainfo>
		</item>
		<item
			timeRelativeToTestSuiteStartTime="00:32.489"
			timeRelativeToTestModuleStartTime="00:32.497"
			timeWallClock="15:04:55"
			time="00:32.489"
			level="Info"
			category="Mouse">
			<message>
				Mouse Left Up item 'CFRAME2.Client1' at 38;260.
			</message>
			<metainfo
				type="repoitem"
				path="/form[@title~'^C\.FRAME\ 2\ \ \ \ \ \ \ \ \ \ \ \ \ \ \ \ ']/container[5]/?/?/container[@accessiblerole='Client']"
				fullname="trialRepository.CFRAME2.Client1"
				id="578085b3e334485b84a302dbd29f1bdc"
				timeout="60000"
				codefile="c:\Users\PG2137\Documents\Ranorex\RanorexStudio Projects\trial\trial\Recording1.cs"
				codeline="237"
				itemindex="36"
				loglvl="Info">
			</metainfo>
		</item>
		<item
			timeRelativeToTestSuiteStartTime="00:33.138"
			timeRelativeToTestModuleStartTime="00:33.146"
			timeWallClock="15:04:56"
			time="00:33.138"
			level="Info"
			category="Mouse">
			<message>
				Mouse Left Down item 'CFRAME2' at 668;657.
			</message>
			<metainfo
				type="repoitem"
				path="/form[@title~'^C\.FRAME\ 2\ \ \ \ \ \ \ \ \ \ \ \ \ \ \ \ ']"
				fullname="trialRepository.CFRAME2.Self"
				id="9591cf7ca8064121b3cb7639c4832b11"
				timeout="30000"
				codefile="c:\Users\PG2137\Documents\Ranorex\RanorexStudio Projects\trial\trial\Recording1.cs"
				codeline="242"
				itemindex="37"
				loglvl="Info">
			</metainfo>
		</item>
		<item
			timeRelativeToTestSuiteStartTime="00:33.655"
			timeRelativeToTestModuleStartTime="00:33.663"
			timeWallClock="15:04:56"
			time="00:33.655"
			level="Info"
			category="Mouse">
			<message>
				Mouse Left Up item 'CFRAME2' at 681;563.
			</message>
			<metainfo
				type="repoitem"
				path="/form[@title~'^C\.FRAME\ 2\ \ \ \ \ \ \ \ \ \ \ \ \ \ \ \ ']"
				fullname="trialRepository.CFRAME2.Self"
				id="9591cf7ca8064121b3cb7639c4832b11"
				timeout="30000"
				codefile="c:\Users\PG2137\Documents\Ranorex\RanorexStudio Projects\trial\trial\Recording1.cs"
				codeline="247"
				itemindex="38"
				loglvl="Info">
			</metainfo>
		</item>
		<item
			timeRelativeToTestSuiteStartTime="00:34.195"
			timeRelativeToTestModuleStartTime="00:34.203"
			timeWallClock="15:04:57"
			time="00:34.195"
			level="Info"
			category="Mouse">
			<message>
				Mouse Left DoubleClick item 'CFRAME2.Client' at 300;149.
			</message>
			<metainfo
				type="repoitem"
				path="/form[@title~'^C\.FRAME\ 2\ \ \ \ \ \ \ \ \ \ \ \ \ \ \ \ ']/container[3]/container[@accessiblerole='Client']"
				fullname="trialRepository.CFRAME2.Client"
				id="50ec70c3e6664cd2b9f3f26aa5de9b43"
				timeout="60000"
				codefile="c:\Users\PG2137\Documents\Ranorex\RanorexStudio Projects\trial\trial\Recording1.cs"
				codeline="252"
				itemindex="39"
				loglvl="Info">
			</metainfo>
		</item>
		<item
			timeRelativeToTestSuiteStartTime="00:35.150"
			timeRelativeToTestModuleStartTime="00:35.158"
			timeWallClock="15:04:58"
			time="00:35.150"
			level="Info"
			category="Mouse">
			<message>
				Mouse Left DoubleClick item 'CFRAME2.Client' at 332;162.
			</message>
			<metainfo
				type="repoitem"
				path="/form[@title~'^C\.FRAME\ 2\ \ \ \ \ \ \ \ \ \ \ \ \ \ \ \ ']/container[3]/container[@accessiblerole='Client']"
				fullname="trialRepository.CFRAME2.Client"
				id="50ec70c3e6664cd2b9f3f26aa5de9b43"
				timeout="60000"
				codefile="c:\Users\PG2137\Documents\Ranorex\RanorexStudio Projects\trial\trial\Recording1.cs"
				codeline="256"
				itemindex="40"
				loglvl="Info">
			</metainfo>
		</item>
		<item
			timeRelativeToTestSuiteStartTime="00:36.096"
			timeRelativeToTestModuleStartTime="00:36.104"
			timeWallClock="15:04:59"
			time="00:36.096"
			level="Info"
			category="Mouse">
			<message>
				Mouse Left Click item 'CFRAME2.Client' at 332;162.
			</message>
			<metainfo
				type="repoitem"
				path="/form[@title~'^C\.FRAME\ 2\ \ \ \ \ \ \ \ \ \ \ \ \ \ \ \ ']/container[3]/container[@accessiblerole='Client']"
				fullname="trialRepository.CFRAME2.Client"
				id="50ec70c3e6664cd2b9f3f26aa5de9b43"
				timeout="60000"
				codefile="c:\Users\PG2137\Documents\Ranorex\RanorexStudio Projects\trial\trial\Recording1.cs"
				codeline="260"
				itemindex="41"
				loglvl="Info">
			</metainfo>
		</item>
		<item
			timeRelativeToTestSuiteStartTime="00:36.867"
			timeRelativeToTestModuleStartTime="00:36.874"
			timeWallClock="15:05:00"
			time="00:36.867"
			level="Info"
			category="Mouse">
			<message>
				Mouse Left Click item 'CFRAME2.Reload' at 35;31.
			</message>
			<metainfo
				type="repoitem"
				path="/form[@title~'^C\.FRAME\ 2\ \ \ \ \ \ \ \ \ \ \ \ \ \ \ \ ']/?/?/button[@accessiblename='Reload']"
				fullname="trialRepository.CFRAME2.Reload"
				id="f9e1be06616b4e03b659ab11fb853be7"
				timeout="60000"
				codefile="c:\Users\PG2137\Documents\Ranorex\RanorexStudio Projects\trial\trial\Recording1.cs"
				codeline="264"
				itemindex="42"
				loglvl="Info">
			</metainfo>
		</item>
	</activity>
</report>
