﻿<?xml version="1.0" encoding="utf-8"?>
<report
	progress="">
	<activity
		result="Failed"
		duration="35.41s"
		durationms="35409"
		type="root"
		rid="171add427d0eabea"
		totalerrorcount="1"
		totalwarningcount="0"
		totalsuccesstestcasecount="0"
		totalfailedtestcasecount="0"
		totalblockedtestcasecount="0"
		totalsuccesscount="0"
		totalfailedcount="0"
		totalblockedcount="0"
		user="PG2137"
		rxversion="7.1.1.0"
		host="EGSPL-AUR324"
		osversion="Windows 10 64bit"
		runtimeversion="4.0.30319.42000"
		procarch="32bit"
		oslanguage="en-US"
		dtnlanguage="en-US"
		screenresolution="1920x1080"
		timestamp="5/15/2018 5:50:15 PM"
		timestampiso="2018-05-15T12:20:15"
		endtime="5/15/2018 5:50:50 PM"
		timeoutfactor="1"
		module="Recording1">
		<detail>
			Recording1
		</detail>
		<varbindings>
		</varbindings>
		<item
			timeRelativeToTestSuiteStartTime="00:00.600"
			timeRelativeToTestModuleStartTime="00:00.608"
			timeWallClock="17:50:15"
			time="00:00.600"
			level="Info"
			category="Application">
			<message>
				Run application 'C:\CMORE\CFrame2.1\bin\release\CFrame2.exe' with arguments '' in normal mode.
			</message>
			<metainfo
				itemindex="0"
				codefile="c:\Users\PG2137\Documents\Ranorex\RanorexStudio Projects\cc\cc\Recording1.cs"
				codeline="82"
				loglvl="Info">
			</metainfo>
		</item>
		<item
			timeRelativeToTestSuiteStartTime="00:00.669"
			timeRelativeToTestModuleStartTime="00:00.677"
			timeWallClock="17:50:15"
			time="00:00.669"
			level="Info"
			category="Mouse">
			<message>
				Mouse Left DoubleClick item 'CFRAME2.Client' at 102;301.
			</message>
			<metainfo
				type="repoitem"
				path="/form[@processname='CFrame2' and @class='Qt5QWindowIcon' and @instance='1']/container[2]/container[@accessiblerole='Client']"
				fullname="ccRepository.CFRAME2.Client"
				id="a5c3e1b0c98f4ab79afb7f1817654b44"
				timeout="60000"
				codefile="c:\Users\PG2137\Documents\Ranorex\RanorexStudio Projects\cc\cc\Recording1.cs"
				codeline="86"
				itemindex="1"
				loglvl="Info">
			</metainfo>
		</item>
		<item
			timeRelativeToTestSuiteStartTime="00:35.409"
			timeRelativeToTestModuleStartTime="00:35.417"
			timeWallClock="17:50:50"
			time="00:35.409"
			level="Error"
			category="Module">
			<message>
				The test run has been aborted by the user.
			</message>
			<metainfo
				loglvl="Error">
			</metainfo>
		</item>
	</activity>
</report>
