2018-05-16 14:53:24.457|DEBUG|Ranorex.Core.Config.SolutionSettingsContext|Search solution config file in C:\Users\PG2137\Documents\Ranorex\RanorexStudio Projects\cframenew\cframenew\bin\Debug\.
2018-05-16 14:53:24.473| INFO|Ranorex.Core.Config.SolutionSettingsContext|Register solution config file C:\Users\PG2137\Documents\Ranorex\RanorexStudio Projects\cframenew\cframenew\bin\Debug\Ranorex.rxsettings
2018-05-16 14:53:24.509| INFO|Ranorex.Core.PluginManager|Loading default plugins...
2018-05-16 14:53:24.653|DEBUG|Ranorex.Core.PluginManager|Found 1 plugins in assembly 'Ranorex.Plugin.Win32, Version=7.1.1.0, Culture=neutral, PublicKeyToken=b798506b574ebc9a'.
2018-05-16 14:53:24.661|DEBUG|Ranorex.Core.PluginManager|Loading plugin 'Win32'...
2018-05-16 14:53:24.685| INFO|Ranorex.Core.ElementEngine|Element engine starting up...
2018-05-16 14:53:28.070|DEBUG|Ranorex.Core.ElementEngine|Licensing passed.
2018-05-16 14:53:28.098| INFO|Ranorex.Core.ElementEngine|Element engine started.
2018-05-16 14:53:28.098| INFO|Ranorex.Core.AttributeWeightConfig|Loaded 8 weight rules.
2018-05-16 14:53:28.098| INFO|Ranorex.Core.PluginManager|Successfully loaded plugin 'Win32'.
2018-05-16 14:53:28.118|DEBUG|Ranorex.Core.PluginManager|Found 1 plugins in assembly 'Ranorex.Plugin.Msaa, Version=7.1.1.0, Culture=neutral, PublicKeyToken=b798506b574ebc9a'.
2018-05-16 14:53:28.118|DEBUG|Ranorex.Core.PluginManager|Loading plugin 'MSAA'...
2018-05-16 14:53:28.118| INFO|Ranorex.Core.PluginManager|Successfully loaded plugin 'MSAA'.
2018-05-16 14:53:28.206|DEBUG|Ranorex.Core.PluginManager|Found 1 plugins in assembly 'Ranorex.Plugin.Web, Version=7.1.1.0, Culture=neutral, PublicKeyToken=b798506b574ebc9a'.
2018-05-16 14:53:28.206|DEBUG|Ranorex.Core.PluginManager|Loading plugin 'Web'...
2018-05-16 14:53:28.206| WARN|Ranorex.Core.ElementEngine|A capability with short name 'button' is already registered. Short name discarded for capability lookup table.
2018-05-16 14:53:28.206| WARN|Ranorex.Core.ElementEngine|A capability with short name 'form' is already registered. Short name discarded for capability lookup table.
2018-05-16 14:53:28.206| WARN|Ranorex.Core.ElementEngine|A capability with short name 'link' is already registered. Short name discarded for capability lookup table.
2018-05-16 14:53:28.206| WARN|Ranorex.Core.ElementEngine|A capability with short name 'table' is already registered. Short name discarded for capability lookup table.
2018-05-16 14:53:28.206| INFO|Ranorex.Core.PluginManager|Successfully loaded plugin 'Web'.
2018-05-16 14:53:28.514|DEBUG|Ranorex.Core.PluginManager|Found 1 plugins in assembly 'Ranorex.Plugin.Wpf, Version=7.1.1.0, Culture=neutral, PublicKeyToken=b798506b574ebc9a'.
2018-05-16 14:53:28.514|DEBUG|Ranorex.Core.PluginManager|Loading plugin 'WPF'...
2018-05-16 14:53:28.514|DEBUG|Ranorex.Plugin.WpfPlugin|WpfPlugin initialized.
2018-05-16 14:53:28.571| INFO|Ranorex.Core.PluginManager|Successfully loaded plugin 'WPF'.
2018-05-16 14:53:28.595|DEBUG|Ranorex.Core.PluginManager|Found 1 plugins in assembly 'Ranorex.Plugin.Uia, Version=7.1.1.0, Culture=neutral, PublicKeyToken=b798506b574ebc9a'.
2018-05-16 14:53:28.595|DEBUG|Ranorex.Core.PluginManager|Loading plugin 'UIA'...
2018-05-16 14:53:28.595| INFO|Ranorex.Core.PluginManager|Successfully loaded plugin 'UIA'.
2018-05-16 14:53:28.595|DEBUG|Ranorex.Core.PluginManager|Found 1 plugins in assembly 'Ranorex.Plugin.WinForms, Version=7.1.1.0, Culture=neutral, PublicKeyToken=b798506b574ebc9a'.
2018-05-16 14:53:28.595|DEBUG|Ranorex.Core.PluginManager|Loading plugin 'WinForms'...
2018-05-16 14:53:28.595| INFO|Ranorex.Core.PluginManager|Successfully loaded plugin 'WinForms'.
2018-05-16 14:53:28.631|DEBUG|Ranorex.Core.PluginManager|Found 1 plugins in assembly 'Ranorex.Plugin.MozillaWeb, Version=7.1.1.0, Culture=neutral, PublicKeyToken=b798506b574ebc9a'.
2018-05-16 14:53:28.631|DEBUG|Ranorex.Core.PluginManager|Loading plugin 'MozillaWeb'...
2018-05-16 14:53:28.631| INFO|Ranorex.Core.PluginManager|Successfully loaded plugin 'MozillaWeb'.
2018-05-16 14:53:28.643|DEBUG|Ranorex.Core.PluginManager|Found 1 plugins in assembly 'Ranorex.Plugin.ChromeWeb, Version=7.1.1.0, Culture=neutral, PublicKeyToken=b798506b574ebc9a'.
2018-05-16 14:53:28.643|DEBUG|Ranorex.Core.PluginManager|Loading plugin 'ChromeWeb'...
2018-05-16 14:53:28.643| INFO|Ranorex.Core.PluginManager|Successfully loaded plugin 'ChromeWeb'.
2018-05-16 14:53:28.671|DEBUG|Ranorex.Core.PluginManager|Found 1 plugins in assembly 'Ranorex.Plugin.Flex, Version=7.1.1.0, Culture=neutral, PublicKeyToken=b798506b574ebc9a'.
2018-05-16 14:53:28.671|DEBUG|Ranorex.Core.PluginManager|Loading plugin 'Flex'...
2018-05-16 14:53:28.675| INFO|Ranorex.Core.PluginManager|Successfully loaded plugin 'Flex'.
2018-05-16 14:53:28.915|DEBUG|Ranorex.Core.PluginManager|Found 2 plugins in assembly 'Ranorex.Plugin.Office, Version=7.1.1.0, Culture=neutral, PublicKeyToken=b798506b574ebc9a'.
2018-05-16 14:53:28.915|DEBUG|Ranorex.Core.PluginManager|Loading plugin 'Office'...
2018-05-16 14:53:28.915| INFO|Ranorex.Core.PluginManager|Successfully loaded plugin 'Office'.
2018-05-16 14:53:28.915|DEBUG|Ranorex.Core.PluginManager|Loading plugin 'ExcelDataConnectorPlugin'...
2018-05-16 14:53:28.931| INFO|Ranorex.Core.PluginManager|Successfully loaded plugin 'ExcelDataConnectorPlugin'.
2018-05-16 14:53:28.995|DEBUG|Ranorex.Core.PluginManager|Found 1 plugins in assembly 'Ranorex.Plugin.RawText, Version=7.1.1.0, Culture=neutral, PublicKeyToken=b798506b574ebc9a'.
2018-05-16 14:53:28.995|DEBUG|Ranorex.Core.PluginManager|Loading plugin 'RawText'...
2018-05-16 14:53:28.995| INFO|Ranorex.Core.PluginManager|Successfully loaded plugin 'RawText'.
2018-05-16 14:53:29.019|DEBUG|Ranorex.Core.PluginManager|Found 1 plugins in assembly 'Ranorex.Plugin.Java, Version=7.1.1.0, Culture=neutral, PublicKeyToken=b798506b574ebc9a'.
2018-05-16 14:53:29.019|DEBUG|Ranorex.Core.PluginManager|Loading plugin 'Java'...
2018-05-16 14:53:29.019| WARN|Ranorex.Core.ElementEngine|A capability with short name 'applet' is already registered. Short name discarded for capability lookup table.
2018-05-16 14:53:29.019| INFO|Ranorex.Core.PluginManager|Successfully loaded plugin 'Java'.
2018-05-16 14:53:29.099|DEBUG|Ranorex.Core.PluginManager|Found 1 plugins in assembly 'Ranorex.Plugin.Sap, Version=7.1.1.0, Culture=neutral, PublicKeyToken=b798506b574ebc9a'.
2018-05-16 14:53:29.099|DEBUG|Ranorex.Core.PluginManager|Loading plugin 'SAP'...
2018-05-16 14:53:29.099| INFO|Ranorex.Core.PluginManager|Successfully loaded plugin 'SAP'.
2018-05-16 14:53:29.143|DEBUG|Ranorex.Core.PluginManager|Found 1 plugins in assembly 'Ranorex.Plugin.Qt, Version=7.1.1.0, Culture=neutral, PublicKeyToken=b798506b574ebc9a'.
2018-05-16 14:53:29.143|DEBUG|Ranorex.Core.PluginManager|Loading plugin 'Qt'...
2018-05-16 14:53:29.143| INFO|Ranorex.Core.PluginManager|Successfully loaded plugin 'Qt'.
2018-05-16 14:53:29.292|DEBUG|Ranorex.Core.PluginManager|Found 3 plugins in assembly 'Ranorex.Plugin.Mobile, Version=7.1.1.0, Culture=neutral, PublicKeyToken=b798506b574ebc9a'.
2018-05-16 14:53:29.292|DEBUG|Ranorex.Core.PluginManager|Loading plugin 'Mobile'...
2018-05-16 14:53:29.292| INFO|Ranorex.Plugin.Mobile.RxIntegration.MobilePlugin|Initializing mobile plugin.
2018-05-16 14:53:29.292| INFO|Ranorex.Core.PluginManager|Successfully loaded plugin 'Mobile'.
2018-05-16 14:53:29.292|DEBUG|Ranorex.Core.PluginManager|Loading plugin 'Mobile.Android.Remote'...
2018-05-16 14:53:29.292| INFO|Ranorex.Core.PluginManager|Successfully loaded plugin 'Mobile.Android.Remote'.
2018-05-16 14:53:29.292|DEBUG|Ranorex.Core.PluginManager|Loading plugin 'Mobile.iOS.Remote'...
2018-05-16 14:53:29.292| INFO|Ranorex.Core.PluginManager|Successfully loaded plugin 'Mobile.iOS.Remote'.
2018-05-16 14:53:29.332|DEBUG|Ranorex.Core.PluginManager|Found 1 plugins in assembly 'Ranorex.Plugin.Cef, Version=7.1.1.0, Culture=neutral, PublicKeyToken=b798506b574ebc9a'.
2018-05-16 14:53:29.332|DEBUG|Ranorex.Core.PluginManager|Loading plugin 'CEF'...
2018-05-16 14:53:29.348|DEBUG|Ranorex.Plugin.CefPlugin|CEF Plugin loaded.
2018-05-16 14:53:29.348| INFO|Ranorex.Core.PluginManager|Successfully loaded plugin 'CEF'.
2018-05-16 14:53:29.420|DEBUG|Ranorex.Core.PluginManager|Found 2 plugins in assembly 'Ranorex.Plugin.WebDriver, Version=7.1.1.0, Culture=neutral, PublicKeyToken=b798506b574ebc9a'.
2018-05-16 14:53:29.420|DEBUG|Ranorex.Core.PluginManager|Loading plugin 'WebDriver'...
2018-05-16 14:53:29.420| INFO|Ranorex.Core.PluginManager|Successfully loaded plugin 'WebDriver'.
2018-05-16 14:53:29.420|DEBUG|Ranorex.Core.PluginManager|Loading plugin 'WebDriver.Remote'...
2018-05-16 14:53:29.420| INFO|Ranorex.Core.PluginManager|Successfully loaded plugin 'WebDriver.Remote'.
2018-05-16 14:53:29.420| INFO|Ranorex.Core.PluginManager|Default plugins loaded successfully.
2018-05-16 14:53:29.432| INFO|Ranorex.Core.PluginManager|Loading plugins from directory 'C:\ProgramData\Ranorex7\Plugins'...
2018-05-16 14:53:29.432| INFO|Ranorex.Core.PluginManager|Loaded 0 plugins from directory 'C:\ProgramData\Ranorex7\Plugins'.
2018-05-16 14:53:29.432| INFO|Ranorex.Core.PluginManager|Loading plugins from directory 'C:\Users\PG2137\Documents\Ranorex\RanorexStudio Projects\cframenew\cframenew\bin\Debug'...
2018-05-16 14:53:29.432| INFO|Ranorex.Core.PluginManager|Loaded 0 plugins from directory 'C:\Users\PG2137\Documents\Ranorex\RanorexStudio Projects\cframenew\cframenew\bin\Debug'.
2018-05-16 14:53:30.377|DEBUG|Ranorex.Plugin.Win32Flavor|Failed to get process name for process with id 2280.
2018-05-16 14:53:30.525| WARN|Ranorex.Core.Testing.TestModuleLeaf|Resolving module assembly name failed. System.NullReferenceException: Object reference not set to an instance of an object.
   at Ranorex.Core.Testing.TestModuleLeaf.ResolveDisplayedAssemblyName(TestModuleFactoryMethod moduleFactoryMethod, Type testSuiteContainerType)
2018-05-16 14:53:30.553| INFO|Ranorex.Report|Application: Run application 'C:\CMORE\CFrame2.1\bin\release\CFrame2.exe' with arguments '' in normal mode.
2018-05-16 14:53:30.581|DEBUG|Ranorex.Plugin.Win32Flavor|Failed to get process name for process with id 2280.
2018-05-16 14:53:30.661| INFO|Ranorex.Report|Mouse: Mouse Left Click item 'CFRAME2.ClearConfig' at 42;15.
2018-05-16 14:53:30.661|DEBUG|Ranorex.Plugin.Win32Flavor|Failed to get process name for process with id 2280.
2018-05-16 14:53:30.942| WARN|Ranorex.Plugin.ChromeWebFlavor|Failed to create Chrome DOMs: System.Runtime.Remoting.RemotingException: Failed to connect to an IPC Port: The system cannot find the file specified.
 

Server stack trace: 
   at System.Runtime.Remoting.Channels.Ipc.IpcPort.Connect(String portName, Boolean secure, TokenImpersonationLevel impersonationLevel, Int32 timeout)
   at System.Runtime.Remoting.Channels.Ipc.ConnectionCache.GetConnection(String portName, Boolean secure, TokenImpersonationLevel level, Int32 timeout)
   at System.Runtime.Remoting.Channels.Ipc.IpcClientTransportSink.ProcessMessage(IMessage msg, ITransportHeaders requestHeaders, Stream requestStream, ITransportHeaders& responseHeaders, Stream& responseStream)
   at System.Runtime.Remoting.Channels.BinaryClientFormatterSink.SyncProcessMessage(IMessage msg)

Exception rethrown at [0]: 
   at System.Runtime.Remoting.Proxies.RealProxy.HandleReturnMessage(IMessage reqMsg, IMessage retMsg)
   at System.Runtime.Remoting.Proxies.RealProxy.PrivateInvoke(MessageData& msgData, Int32 type)
   at Ranorex.Core.IpcRemotingService.IPingable.Ping()
   at Ranorex.Core.IpcRemotingService.GetClientInterface(String serverChannelName, String implTypeName, Boolean global, Type type)
   at Ranorex.Core.IpcRemotingService.GetClientInterface[T](String serverChannelName, String implTypeName, Boolean global)
   at Ranorex.Plugin.ChromeIpc.ChromeDom.GetChromeClientInterface()
   at Ranorex.Plugin.ChromeWebFlavor.CreateChromeDoms(IntPtr hwnd, IList`1 flavorElements)
2018-05-16 14:53:32.600| WARN|Ranorex.Plugin.MsaaFlavorElement|Getting the Msaa child using accChild failed. System.Runtime.InteropServices.COMException (0x80004005): Error HRESULT E_FAIL has been returned from a call to a COM component.
   at Accessibility.IAccessible.get_accChild(Object varChild)
   at Ranorex.Plugin.MsaaFlavorElement.GetChildren(Boolean filter)
2018-05-16 14:53:32.600| WARN|Ranorex.Plugin.MsaaFlavorElement|Getting the Msaa child using accChild failed. System.Runtime.InteropServices.COMException (0x80004005): Error HRESULT E_FAIL has been returned from a call to a COM component.
   at Accessibility.IAccessible.get_accChild(Object varChild)
   at Ranorex.Plugin.MsaaFlavorElement.GetChildren(Boolean filter)
2018-05-16 14:53:33.069| WARN|Ranorex.Plugin.MsaaFlavorElement|Getting the Msaa child using accChild failed. System.Runtime.InteropServices.COMException (0x80004005): Error HRESULT E_FAIL has been returned from a call to a COM component.
   at Accessibility.IAccessible.get_accChild(Object varChild)
   at Ranorex.Plugin.MsaaFlavorElement.GetChildren(Boolean filter)
2018-05-16 14:53:33.069| WARN|Ranorex.Plugin.MsaaFlavorElement|Getting the Msaa child using accChild failed. System.Runtime.InteropServices.COMException (0x80004005): Error HRESULT E_FAIL has been returned from a call to a COM component.
   at Accessibility.IAccessible.get_accChild(Object varChild)
   at Ranorex.Plugin.MsaaFlavorElement.GetChildren(Boolean filter)
2018-05-16 14:53:34.006|DEBUG|Ranorex.Plugin.Win32Flavor|Failed to get process name for process with id 2280.
2018-05-16 14:53:34.730| INFO|Ranorex.Report|Mouse: Mouse Left Click item 'CFRAME2.File' at 7;21.
2018-05-16 14:53:35.651| WARN|Ranorex.Plugin.MsaaFlavorElement|Getting the Msaa child using accChild failed. System.Runtime.InteropServices.COMException (0x80004005): Error HRESULT E_FAIL has been returned from a call to a COM component.
   at Accessibility.IAccessible.get_accChild(Object varChild)
   at Ranorex.Plugin.MsaaFlavorElement.GetChildren(Boolean filter)
2018-05-16 14:53:35.651| WARN|Ranorex.Plugin.MsaaFlavorElement|Getting the Msaa child using accChild failed. System.Runtime.InteropServices.COMException (0x80004005): Error HRESULT E_FAIL has been returned from a call to a COM component.
   at Accessibility.IAccessible.get_accChild(Object varChild)
   at Ranorex.Plugin.MsaaFlavorElement.GetChildren(Boolean filter)
2018-05-16 14:53:35.659| WARN|Ranorex.Plugin.MsaaFlavorElement|Getting the Msaa child using accChild failed. System.Runtime.InteropServices.COMException (0x80004005): Error HRESULT E_FAIL has been returned from a call to a COM component.
   at Accessibility.IAccessible.get_accChild(Object varChild)
   at Ranorex.Plugin.MsaaFlavorElement.GetChildren(Boolean filter)
2018-05-16 14:53:35.659| WARN|Ranorex.Plugin.MsaaFlavorElement|Getting the Msaa child using accChild failed. System.Runtime.InteropServices.COMException (0x80004005): Error HRESULT E_FAIL has been returned from a call to a COM component.
   at Accessibility.IAccessible.get_accChild(Object varChild)
   at Ranorex.Plugin.MsaaFlavorElement.GetChildren(Boolean filter)
2018-05-16 14:53:36.794| INFO|Ranorex.Report|Mouse: Mouse Left Click item 'CFRAME.LoadConfiguration' at 128;18.
2018-05-16 14:53:36.802|DEBUG|Ranorex.Plugin.Win32Flavor|Failed to get process name for process with id 2280.
2018-05-16 14:53:36.830| WARN|Ranorex.Plugin.ChromeWebFlavor|Failed to create Chrome DOMs: System.Runtime.Remoting.RemotingException: Failed to connect to an IPC Port: The system cannot find the file specified.
 

Server stack trace: 
   at System.Runtime.Remoting.Channels.Ipc.IpcPort.Connect(String portName, Boolean secure, TokenImpersonationLevel impersonationLevel, Int32 timeout)
   at System.Runtime.Remoting.Channels.Ipc.ConnectionCache.GetConnection(String portName, Boolean secure, TokenImpersonationLevel level, Int32 timeout)
   at System.Runtime.Remoting.Channels.Ipc.IpcClientTransportSink.ProcessMessage(IMessage msg, ITransportHeaders requestHeaders, Stream requestStream, ITransportHeaders& responseHeaders, Stream& responseStream)
   at System.Runtime.Remoting.Channels.BinaryClientFormatterSink.SyncProcessMessage(IMessage msg)

Exception rethrown at [0]: 
   at System.Runtime.Remoting.Proxies.RealProxy.HandleReturnMessage(IMessage reqMsg, IMessage retMsg)
   at System.Runtime.Remoting.Proxies.RealProxy.PrivateInvoke(MessageData& msgData, Int32 type)
   at Ranorex.Core.IpcRemotingService.IPingable.Ping()
   at Ranorex.Core.IpcRemotingService.GetClientInterface(String serverChannelName, String implTypeName, Boolean global, Type type)
   at Ranorex.Core.IpcRemotingService.GetClientInterface[T](String serverChannelName, String implTypeName, Boolean global)
   at Ranorex.Plugin.ChromeIpc.ChromeDom.GetChromeClientInterface()
   at Ranorex.Plugin.ChromeWebFlavor.CreateChromeDoms(IntPtr hwnd, IList`1 flavorElements)
2018-05-16 14:53:37.306|DEBUG|Ranorex.Plugin.Win32Flavor|Failed to get process name for process with id 2280.
2018-05-16 14:53:38.003| INFO|Ranorex.Report|Mouse: Mouse Left Click item 'LoadConfiguration.NewVolumeD' at 60;13.
2018-05-16 14:53:38.003|DEBUG|Ranorex.Plugin.Win32Flavor|Failed to get process name for process with id 2280.
2018-05-16 14:53:38.035| WARN|Ranorex.Plugin.ChromeWebFlavor|Failed to create Chrome DOMs: System.Runtime.Remoting.RemotingException: Failed to connect to an IPC Port: The system cannot find the file specified.
 

Server stack trace: 
   at System.Runtime.Remoting.Channels.Ipc.IpcPort.Connect(String portName, Boolean secure, TokenImpersonationLevel impersonationLevel, Int32 timeout)
   at System.Runtime.Remoting.Channels.Ipc.ConnectionCache.GetConnection(String portName, Boolean secure, TokenImpersonationLevel level, Int32 timeout)
   at System.Runtime.Remoting.Channels.Ipc.IpcClientTransportSink.ProcessMessage(IMessage msg, ITransportHeaders requestHeaders, Stream requestStream, ITransportHeaders& responseHeaders, Stream& responseStream)
   at System.Runtime.Remoting.Channels.BinaryClientFormatterSink.SyncProcessMessage(IMessage msg)

Exception rethrown at [0]: 
   at System.Runtime.Remoting.Proxies.RealProxy.HandleReturnMessage(IMessage reqMsg, IMessage retMsg)
   at System.Runtime.Remoting.Proxies.RealProxy.PrivateInvoke(MessageData& msgData, Int32 type)
   at Ranorex.Core.IpcRemotingService.IPingable.Ping()
   at Ranorex.Core.IpcRemotingService.GetClientInterface(String serverChannelName, String implTypeName, Boolean global, Type type)
   at Ranorex.Core.IpcRemotingService.GetClientInterface[T](String serverChannelName, String implTypeName, Boolean global)
   at Ranorex.Plugin.ChromeIpc.ChromeDom.GetChromeClientInterface()
   at Ranorex.Plugin.ChromeWebFlavor.CreateChromeDoms(IntPtr hwnd, IList`1 flavorElements)
2018-05-16 14:53:38.336| WARN|Ranorex.Plugin.ChromeWebFlavor|Failed to create Chrome DOMs: System.Runtime.Remoting.RemotingException: Failed to connect to an IPC Port: The system cannot find the file specified.
 

Server stack trace: 
   at System.Runtime.Remoting.Channels.Ipc.IpcPort.Connect(String portName, Boolean secure, TokenImpersonationLevel impersonationLevel, Int32 timeout)
   at System.Runtime.Remoting.Channels.Ipc.ConnectionCache.GetConnection(String portName, Boolean secure, TokenImpersonationLevel level, Int32 timeout)
   at System.Runtime.Remoting.Channels.Ipc.IpcClientTransportSink.ProcessMessage(IMessage msg, ITransportHeaders requestHeaders, Stream requestStream, ITransportHeaders& responseHeaders, Stream& responseStream)
   at System.Runtime.Remoting.Channels.BinaryClientFormatterSink.SyncProcessMessage(IMessage msg)

Exception rethrown at [0]: 
   at System.Runtime.Remoting.Proxies.RealProxy.HandleReturnMessage(IMessage reqMsg, IMessage retMsg)
   at System.Runtime.Remoting.Proxies.RealProxy.PrivateInvoke(MessageData& msgData, Int32 type)
   at Ranorex.Core.IpcRemotingService.IPingable.Ping()
   at Ranorex.Core.IpcRemotingService.GetClientInterface(String serverChannelName, String implTypeName, Boolean global, Type type)
   at Ranorex.Core.IpcRemotingService.GetClientInterface[T](String serverChannelName, String implTypeName, Boolean global)
   at Ranorex.Plugin.ChromeIpc.ChromeDom.GetChromeClientInterface()
   at Ranorex.Plugin.ChromeWebFlavor.CreateChromeDoms(IntPtr hwnd, IList`1 flavorElements)
2018-05-16 14:53:39.245|DEBUG|Ranorex.Plugin.Win32Flavor|Failed to get process name for process with id 2280.
2018-05-16 14:53:39.930| INFO|Ranorex.Report|Mouse: Mouse Scroll Vertical by -1200 units.
2018-05-16 14:53:40.503| INFO|Ranorex.Report|Mouse: Mouse Left DoubleClick item 'LoadConfiguration.ShellView.SystemItemNameDisplay' at 43;10.
2018-05-16 14:53:44.320| INFO|Ranorex.Report|Mouse: Mouse Left Click item 'LoadConfiguration.ShellView.SystemItemNameDisplay1' at 40;13.
2018-05-16 14:53:47.192| INFO|Ranorex.Report|Mouse: Mouse Left Click item 'LoadConfiguration.ButtonOpen' at 67;15.
2018-05-16 14:53:47.925| INFO|Ranorex.Report|Mouse: Mouse Scroll Vertical by -600 units.
2018-05-16 14:53:48.477| INFO|Ranorex.Report|Mouse: Mouse Scroll Vertical by 480 units.
2018-05-16 14:53:48.994| INFO|Ranorex.Report|Mouse: Mouse Left DoubleClick item 'LoadConfiguration.ShellView.SystemItemNameDisplay2' at 52;15.
2018-05-16 14:53:52.335| INFO|Ranorex.Report|Mouse: Mouse Left Click item 'LoadConfiguration.ShellView.BaselineImage' at 87;77.
2018-05-16 14:53:55.627| INFO|Ranorex.Report|Mouse: Mouse Left Click item 'LoadConfiguration.ButtonOpen' at 64;19.
2018-05-16 14:53:56.360| INFO|Ranorex.Report|Mouse: Mouse Scroll Vertical by -1080 units.
2018-05-16 14:53:56.876| INFO|Ranorex.Report|Mouse: Mouse Left Click item 'CFRAME2.Play' at 28;16.
2018-05-16 14:53:58.154| INFO|Ranorex.Report|Mouse: Mouse Left Down item 'CFRAME2' at 425;394.
2018-05-16 14:53:58.679| INFO|Ranorex.Report|Mouse: Mouse Left Up item 'CFRAME2' at 705;375.
2018-05-16 14:53:59.308| INFO|Ranorex.Report|Mouse: Mouse Left Down item 'CFRAME2' at 370;352.
2018-05-16 14:53:59.908| INFO|Ranorex.Report|Mouse: Mouse Left Up item 'CFRAME2' at 360;476.
2018-05-16 14:54:00.429| INFO|Ranorex.Report|Mouse: Mouse Left Down item 'CFRAME2' at 377;544.
2018-05-16 14:54:00.954| INFO|Ranorex.Report|Mouse: Mouse Left Move item 'CFRAME2' at 385;536.
2018-05-16 14:54:01.475| INFO|Ranorex.Report|Mouse: Mouse Left Up item 'CFRAME2.Text' at 369;4.
2018-05-16 14:54:02.227| INFO|Ranorex.Report|Mouse: Mouse Left Down item 'CFRAME2' at 391;473.
2018-05-16 14:54:02.752| INFO|Ranorex.Report|Mouse: Mouse Left Up item 'CFRAME2' at 358;623.
2018-05-16 14:54:03.277| INFO|Ranorex.Report|Mouse: Mouse Left Down item 'CFRAME2' at 350;271.
2018-05-16 14:54:03.798| INFO|Ranorex.Report|Mouse: Mouse Left Up item 'CFRAME2' at 338;425.
2018-05-16 14:54:04.318| INFO|Ranorex.Report|Mouse: Mouse Left DoubleClick item 'CFRAME2.Qt5QWindowIcon' at 388;0.
2018-05-16 14:54:05.288| INFO|Ranorex.Report|Mouse: Mouse Left Down item 'CFRAME2' at 410;240.
2018-05-16 14:54:06.453| INFO|Ranorex.Report|Mouse: Mouse Left Up item 'CFRAME2' at 406;351.
2018-05-16 14:54:06.997| INFO|Ranorex.Report|Mouse: Mouse Left Down item 'CFRAME2' at 429;208.
2018-05-16 14:54:07.526| INFO|Ranorex.Report|Mouse: Mouse Left Up item 'CFRAME2' at 440;290.
2018-05-16 14:54:08.047| INFO|Ranorex.Report|Mouse: Mouse Left Click item 'CFRAME2.Stop' at 28;11.
2018-05-16 14:54:38.236|DEBUG|Ranorex.Plugin.Win32Flavor|Failed to get process name for process with id 2280.
2018-05-16 14:54:38.284| WARN|Ranorex.Plugin.ChromeWebFlavor|Failed to create Chrome DOMs: System.Runtime.Remoting.RemotingException: Failed to connect to an IPC Port: The system cannot find the file specified.
 

Server stack trace: 
   at System.Runtime.Remoting.Channels.Ipc.IpcPort.Connect(String portName, Boolean secure, TokenImpersonationLevel impersonationLevel, Int32 timeout)
   at System.Runtime.Remoting.Channels.Ipc.ConnectionCache.GetConnection(String portName, Boolean secure, TokenImpersonationLevel level, Int32 timeout)
   at System.Runtime.Remoting.Channels.Ipc.IpcClientTransportSink.ProcessMessage(IMessage msg, ITransportHeaders requestHeaders, Stream requestStream, ITransportHeaders& responseHeaders, Stream& responseStream)
   at System.Runtime.Remoting.Channels.BinaryClientFormatterSink.SyncProcessMessage(IMessage msg)

Exception rethrown at [0]: 
   at System.Runtime.Remoting.Proxies.RealProxy.HandleReturnMessage(IMessage reqMsg, IMessage retMsg)
   at System.Runtime.Remoting.Proxies.RealProxy.PrivateInvoke(MessageData& msgData, Int32 type)
   at Ranorex.Core.IpcRemotingService.IPingable.Ping()
   at Ranorex.Core.IpcRemotingService.GetClientInterface(String serverChannelName, String implTypeName, Boolean global, Type type)
   at Ranorex.Core.IpcRemotingService.GetClientInterface[T](String serverChannelName, String implTypeName, Boolean global)
   at Ranorex.Plugin.ChromeIpc.ChromeDom.GetChromeClientInterface()
   at Ranorex.Plugin.ChromeWebFlavor.CreateChromeDoms(IntPtr hwnd, IList`1 flavorElements)
2018-05-16 14:54:38.696|ERROR|Ranorex.Report|Module: Failed to find item 'cframenewRepository.CFRAME2.Stop'.<br/>No element found for path 'element[@instance='7']/?/?/button[@accessiblename='Stop']' within 30s.
