﻿<?xml version="1.0" encoding="utf-8"?>
<report
	progress="">
	<activity
		result="Success"
		duration="0ms"
		durationms="0"
		type="root"
		rid="45b5b442362566b"
		totalerrorcount="0"
		totalwarningcount="1"
		totalsuccesstestcasecount="0"
		totalfailedtestcasecount="0"
		totalblockedtestcasecount="0"
		totalsuccesscount="0"
		totalfailedcount="0"
		totalblockedcount="0"
		user="PG2137"
		rxversion="7.1.1.0"
		host="EGSPL-AUR324"
		osversion="Windows 10 64bit"
		runtimeversion="4.0.30319.42000"
		procarch="32bit"
		oslanguage="en-US"
		dtnlanguage="en-US"
		screenresolution="4800x1350"
		timestamp="5/23/2018 3:44:08 PM"
		timestampiso="2018-05-23T10:14:08"
		endtime="5/23/2018 3:44:36 PM"
		timeoutfactor="1"
		module="Recording1">
		<detail>
			Recording1
		</detail>
		<item
			timeRelativeToTestSuiteStartTime="00:00.672"
			timeRelativeToTestModuleStartTime="00:00.681"
			timeWallClock="15:44:09"
			time="00:00.672"
			level="Warn"
			category="General">
			<message>
				Different display DPI scaling values are in use. Please make sure all connected displays have the same DPI scaling value.<br/>The following website provides more information on this technology limitation:<br/>https://www.ranorex.com/help/v7.1.1/technology-instrumentation/general-troubleshooting#GeneralTroubleshooting-DifferentDisplayDPIScalingValues<br/>(This message is only shown once per report.)
			</message>
			<metainfo
				limitationName="DifferentDpi"
				showInProgressDialog="False"
				loglvl="Warn">
			</metainfo>
		</item>
		<varbindings>
		</varbindings>
		<item
			timeRelativeToTestSuiteStartTime="00:00.741"
			timeRelativeToTestModuleStartTime="00:00.750"
			timeWallClock="15:44:09"
			time="00:00.741"
			level="Info"
			category="Mouse">
			<message>
				Mouse Left Click item 'Explorer.CFRAME22RunningWindows' at 37;16.
			</message>
			<metainfo
				type="repoitem"
				path="/menubar[@class='Shell_TrayWnd']/container[@controlid='40965']//toolbar[@accessiblename='Running applications']/button[@accessiblename~'^C\.FRAME\ 2\ -\ 2\ running\ win']"
				fullname="playerpclRepository.Explorer.CFRAME22RunningWindows"
				id="87632242c7624b4899b89603f79c1d10"
				timeout="60000"
				codefile="c:\Users\PG2137\Documents\Ranorex\RanorexStudio Projects\playerpcl\playerpcl\Recording1.cs"
				codeline="82"
				itemindex="0"
				loglvl="Info">
			</metainfo>
		</item>
		<item
			timeRelativeToTestSuiteStartTime="00:02.173"
			timeRelativeToTestModuleStartTime="00:02.182"
			timeWallClock="15:44:11"
			time="00:02.173"
			level="Info"
			category="Mouse">
			<message>
				Mouse Left Click item 'Explorer1.CFRAME2' at 24;108.
			</message>
			<metainfo
				type="repoitem"
				path="/form[@processname='explorer' and @class='TaskListThumbnailWnd']/?/?/listitem[@accessiblerole='ListItem' and @text='C.FRAME 2' and @index='2']"
				fullname="playerpclRepository.Explorer1.CFRAME2"
				id="caf1b6911ab944b2afb245079a89a0a4"
				timeout="60000"
				codefile="c:\Users\PG2137\Documents\Ranorex\RanorexStudio Projects\playerpcl\playerpcl\Recording1.cs"
				codeline="86"
				itemindex="1"
				loglvl="Info">
			</metainfo>
		</item>
		<item
			timeRelativeToTestSuiteStartTime="00:02.990"
			timeRelativeToTestModuleStartTime="00:02.999"
			timeWallClock="15:44:11"
			time="00:02.990"
			level="Info"
			category="Mouse">
			<message>
				Mouse Left Click item 'CFRAME2.Play' at 62;19.
			</message>
			<metainfo
				type="repoitem"
				path="/form[@processname='CFrame2' and @class='Qt5QWindowIcon' and @instance='2']/element[@instance='4']/?/?/button[@accessiblename='Play']"
				fullname="playerpclRepository.CFRAME2.Play"
				id="65153c39649a4406be82bb678a5ae7f6"
				timeout="60000"
				codefile="c:\Users\PG2137\Documents\Ranorex\RanorexStudio Projects\playerpcl\playerpcl\Recording1.cs"
				codeline="90"
				itemindex="2"
				loglvl="Info">
			</metainfo>
		</item>
		<item
			timeRelativeToTestSuiteStartTime="00:25.900"
			timeRelativeToTestModuleStartTime="00:25.909"
			timeWallClock="15:44:34"
			time="00:25.900"
			level="Info"
			category="Mouse">
			<message>
				Mouse Left Click item 'CFRAME2.SpinButton' at 17;8.
			</message>
			<metainfo
				type="repoitem"
				path="/form[@processname='CFrame2' and @class='Qt5QWindowIcon' and @instance='2']/element[@instance='4']/?/?/container[@accessiblerole='SpinButton']"
				fullname="playerpclRepository.CFRAME2.SpinButton"
				id="a24316a7d0d644d0b10427d2baadec3b"
				timeout="60000"
				codefile="c:\Users\PG2137\Documents\Ranorex\RanorexStudio Projects\playerpcl\playerpcl\Recording1.cs"
				codeline="94"
				itemindex="3"
				loglvl="Info">
			</metainfo>
		</item>
		<item
			timeRelativeToTestSuiteStartTime="00:26.852"
			timeRelativeToTestModuleStartTime="00:26.861"
			timeWallClock="15:44:35"
			time="00:26.852"
			level="Info"
			category="Validation">
			<message>
				Validating Exists on item 'CFRAME2.SpinButton'.
			</message>
			<metainfo
				type="repoitem"
				path="/form[@processname='CFrame2' and @class='Qt5QWindowIcon' and @instance='2']/element[@instance='4']/?/?/container[@accessiblerole='SpinButton']"
				fullname="playerpclRepository.CFRAME2.SpinButton"
				id="a24316a7d0d644d0b10427d2baadec3b"
				timeout="60000"
				codefile="c:\Users\PG2137\Documents\Ranorex\RanorexStudio Projects\playerpcl\playerpcl\Recording1.cs"
				codeline="98"
				itemindex="4"
				loglvl="Info">
			</metainfo>
		</item>
		<item
			timeRelativeToTestSuiteStartTime="00:27.111"
			timeRelativeToTestModuleStartTime="00:27.119"
			timeWallClock="15:44:36"
			time="00:27.111"
			level="Success"
			category="Validation">
			<message>
				Element for item 'SpinButton' does exist.
			</message>
			<metainfo
				type="repoitem"
				path="/form[@processname='CFrame2' and @class='Qt5QWindowIcon' and @instance='2']/element[@instance='4']/?/?/container[@accessiblerole='SpinButton']"
				fullname="playerpclRepository.CFRAME2.SpinButton"
				id="a24316a7d0d644d0b10427d2baadec3b"
				timeout="60000"
				codefile="c:\Users\PG2137\Documents\Ranorex\RanorexStudio Projects\playerpcl\playerpcl\Recording1.cs"
				codeline="99"
				loglvl="Success"
				itemindex="4">
			</metainfo>
		</item>
	</activity>
</report>
