﻿<?xml version="1.0" encoding="utf-8"?>
<report
	progress="">
	<activity
		result="Failed"
		duration="1m"
		durationms="61877"
		type="root"
		rid="1cc919dcd293d476"
		totalerrorcount="1"
		totalwarningcount="1"
		totalsuccesstestcasecount="0"
		totalfailedtestcasecount="0"
		totalblockedtestcasecount="0"
		totalsuccesscount="0"
		totalfailedcount="0"
		totalblockedcount="0"
		user="PG2137"
		rxversion="7.1.1.0"
		host="EGSPL-AUR324"
		osversion="Windows 10 64bit"
		runtimeversion="4.0.30319.42000"
		procarch="32bit"
		oslanguage="en-US"
		dtnlanguage="en-US"
		screenresolution="4800x1350"
		timestamp="5/23/2018 3:41:49 PM"
		timestampiso="2018-05-23T10:11:49"
		endtime="5/23/2018 3:42:51 PM"
		timeoutfactor="1"
		module="Recording1">
		<detail>
			Recording1
		</detail>
		<item
			timeRelativeToTestSuiteStartTime="00:00.575"
			timeRelativeToTestModuleStartTime="00:00.582"
			timeWallClock="15:41:49"
			time="00:00.575"
			level="Warn"
			category="General">
			<message>
				Different display DPI scaling values are in use. Please make sure all connected displays have the same DPI scaling value.<br/>The following website provides more information on this technology limitation:<br/>https://www.ranorex.com/help/v7.1.1/technology-instrumentation/general-troubleshooting#GeneralTroubleshooting-DifferentDisplayDPIScalingValues<br/>(This message is only shown once per report.)
			</message>
			<metainfo
				limitationName="DifferentDpi"
				showInProgressDialog="False"
				loglvl="Warn">
			</metainfo>
		</item>
		<varbindings>
		</varbindings>
		<item
			timeRelativeToTestSuiteStartTime="00:00.634"
			timeRelativeToTestModuleStartTime="00:00.641"
			timeWallClock="15:41:49"
			time="00:00.634"
			level="Info"
			category="Application">
			<message>
				Run application 'C:\CMORE\CFrame2.1\bin\release\CFrame2.exe' with arguments '' in normal mode.
			</message>
			<metainfo
				itemindex="0"
				codefile="c:\Users\PG2137\Documents\Ranorex\RanorexStudio Projects\playerpcl\playerpcl\Recording1.cs"
				codeline="82"
				loglvl="Info">
			</metainfo>
		</item>
		<item
			timeRelativeToTestSuiteStartTime="00:00.703"
			timeRelativeToTestModuleStartTime="00:00.710"
			timeWallClock="15:41:49"
			time="00:00.703"
			level="Info"
			category="Mouse">
			<message>
				Mouse Left Click item 'CFRAME2.ClearConfig' at 45;24.
			</message>
			<metainfo
				type="repoitem"
				path="/form[@title~'^C\.FRAME\ 2\ \ \ \ \ \ \ \ \ \ \ \ \ \ \ \ ']/?/?/button[@accessiblename='Clear Config']"
				fullname="playerpclRepository.CFRAME2.ClearConfig"
				id="1e53bad82c914eaca4c89bfe67261d6c"
				timeout="60000"
				codefile="c:\Users\PG2137\Documents\Ranorex\RanorexStudio Projects\playerpcl\playerpcl\Recording1.cs"
				codeline="86"
				itemindex="1"
				loglvl="Info">
			</metainfo>
		</item>
		<item
			timeRelativeToTestSuiteStartTime="00:02.934"
			timeRelativeToTestModuleStartTime="00:02.941"
			timeWallClock="15:41:52"
			time="00:02.934"
			level="Info"
			category="Mouse">
			<message>
				Mouse Left Down item 'CFRAME2.List.Player' at 42;10.
			</message>
			<metainfo
				type="repoitem"
				path="/form[@title~'^C\.FRAME\ 2\ \ \ \ \ \ \ \ \ \ \ \ \ \ \ \ ']/container[1]//list[@accessiblerole='List']/listitem[@accessiblename='Player']"
				fullname="playerpclRepository.CFRAME2.List.Player"
				id="086d7377f41640ababde352f993a9528"
				timeout="90000"
				codefile="c:\Users\PG2137\Documents\Ranorex\RanorexStudio Projects\playerpcl\playerpcl\Recording1.cs"
				codeline="90"
				itemindex="2"
				loglvl="Info">
			</metainfo>
		</item>
		<item
			timeRelativeToTestSuiteStartTime="00:03.682"
			timeRelativeToTestModuleStartTime="00:03.689"
			timeWallClock="15:41:52"
			time="00:03.682"
			level="Info"
			category="Mouse">
			<message>
				Mouse Left Move item 'CFRAME2.List.Player' at 50;2.
			</message>
			<metainfo
				type="repoitem"
				path="/form[@title~'^C\.FRAME\ 2\ \ \ \ \ \ \ \ \ \ \ \ \ \ \ \ ']/container[1]//list[@accessiblerole='List']/listitem[@accessiblename='Player']"
				fullname="playerpclRepository.CFRAME2.List.Player"
				id="086d7377f41640ababde352f993a9528"
				timeout="90000"
				codefile="c:\Users\PG2137\Documents\Ranorex\RanorexStudio Projects\playerpcl\playerpcl\Recording1.cs"
				codeline="95"
				itemindex="3"
				loglvl="Info">
			</metainfo>
		</item>
		<item
			timeRelativeToTestSuiteStartTime="00:04.388"
			timeRelativeToTestModuleStartTime="00:04.395"
			timeWallClock="15:41:53"
			time="00:04.388"
			level="Info"
			category="Mouse">
			<message>
				Mouse Left Up item 'CFRAME2.Client' at 299;106.
			</message>
			<metainfo
				type="repoitem"
				path="/form[@title~'^C\.FRAME\ 2\ \ \ \ \ \ \ \ \ \ \ \ \ \ \ \ ']/container[2]/container[@accessiblerole='Client']"
				fullname="playerpclRepository.CFRAME2.Client"
				id="7999c0de3b704e32adc0e59bac72b3d2"
				timeout="60000"
				codefile="c:\Users\PG2137\Documents\Ranorex\RanorexStudio Projects\playerpcl\playerpcl\Recording1.cs"
				codeline="99"
				itemindex="4"
				loglvl="Info">
			</metainfo>
		</item>
		<item
			timeRelativeToTestSuiteStartTime="00:05.049"
			timeRelativeToTestModuleStartTime="00:05.056"
			timeWallClock="15:41:54"
			time="00:05.049"
			level="Info"
			category="Mouse">
			<message>
				Mouse Left Click item 'CFRAME2.Open' at 38;17.
			</message>
			<metainfo
				type="repoitem"
				path="/form[@title~'^C\.FRAME\ 2\ \ \ \ \ \ \ \ \ \ \ \ \ \ \ \ ']/?/?/button[@accessiblename='Open']"
				fullname="playerpclRepository.CFRAME2.Open"
				id="999302cf7c204d76a8f9c5510a5f25cb"
				timeout="60000"
				codefile="c:\Users\PG2137\Documents\Ranorex\RanorexStudio Projects\playerpcl\playerpcl\Recording1.cs"
				codeline="104"
				itemindex="5"
				loglvl="Info">
			</metainfo>
		</item>
		<item
			timeRelativeToTestSuiteStartTime="00:06.379"
			timeRelativeToTestModuleStartTime="00:06.386"
			timeWallClock="15:41:55"
			time="00:06.379"
			level="Info"
			category="Mouse">
			<message>
				Mouse Left Click item 'Open.NewVolumeD' at 16;13.
			</message>
			<metainfo
				type="repoitem"
				path="/form[@title='Open']/element[@class='DUIViewWndClassName']/container/element[1]/?/?/tree[@controlid='100']//treeitem[@text='New Volume (D:)']"
				fullname="playerpclRepository.Open.NewVolumeD"
				id="96d64b0c3d6344c493edaff404afe5b2"
				timeout="60000"
				codefile="c:\Users\PG2137\Documents\Ranorex\RanorexStudio Projects\playerpcl\playerpcl\Recording1.cs"
				codeline="108"
				itemindex="6"
				loglvl="Info">
			</metainfo>
		</item>
		<item
			timeRelativeToTestSuiteStartTime="00:07.726"
			timeRelativeToTestModuleStartTime="00:07.733"
			timeWallClock="15:41:57"
			time="00:07.726"
			level="Info"
			category="Mouse">
			<message>
				Mouse Scroll Vertical by -720 units.
			</message>
			<metainfo
				itemindex="7"
				codefile="c:\Users\PG2137\Documents\Ranorex\RanorexStudio Projects\playerpcl\playerpcl\Recording1.cs"
				codeline="112"
				loglvl="Info">
			</metainfo>
		</item>
		<item
			timeRelativeToTestSuiteStartTime="00:08.247"
			timeRelativeToTestModuleStartTime="00:08.254"
			timeWallClock="15:41:57"
			time="00:08.247"
			level="Info"
			category="Mouse">
			<message>
				Mouse Left DoubleClick item 'Open.ShellView.SystemItemNameDisplay' at 69;5.
			</message>
			<metainfo
				type="repoitem"
				path="/form[@title='Open']/element[@class='DUIViewWndClassName']//container[@caption='ShellView']/?/?/listitem[@automationid='17']/text[@automationid='System.ItemNameDisplay']"
				fullname="playerpclRepository.Open.ShellView.SystemItemNameDisplay"
				id="601767ec5bc54995941577c0c5c827a9"
				timeout="90000"
				codefile="c:\Users\PG2137\Documents\Ranorex\RanorexStudio Projects\playerpcl\playerpcl\Recording1.cs"
				codeline="116"
				itemindex="8"
				loglvl="Info">
			</metainfo>
		</item>
		<item
			timeRelativeToTestSuiteStartTime="01:01.876"
			timeRelativeToTestModuleStartTime="01:01.883"
			timeWallClock="15:42:51"
			time="01:01.876"
			level="Error"
			category="Module">
			<message>
				The test run has been aborted by the user.
			</message>
			<metainfo
				loglvl="Error">
			</metainfo>
		</item>
	</activity>
</report>
