﻿<?xml version="1.0" encoding="utf-8"?>
<report
	progress="">
	<activity
		result="Failed"
		duration="1m"
		durationms="60185"
		type="root"
		rid="2456926e142c47de"
		totalerrorcount="1"
		totalwarningcount="0"
		totalsuccesstestcasecount="0"
		totalfailedtestcasecount="0"
		totalblockedtestcasecount="0"
		totalsuccesscount="0"
		totalfailedcount="0"
		totalblockedcount="0"
		user="PG2137"
		rxversion="7.1.1.0"
		host="EGSPL-AUR324"
		osversion="Windows 10 64bit"
		runtimeversion="4.0.30319.42000"
		procarch="32bit"
		oslanguage="en-US"
		dtnlanguage="en-US"
		screenresolution="1920x1080"
		timestamp="5/23/2018 5:14:21 PM"
		timestampiso="2018-05-23T11:44:21"
		endtime="5/23/2018 5:15:21 PM"
		timeoutfactor="1"
		module="Recording1">
		<detail>
			Recording1
		</detail>
		<varbindings>
		</varbindings>
		<item
			timeRelativeToTestSuiteStartTime="00:00.815"
			timeRelativeToTestModuleStartTime="00:00.821"
			timeWallClock="17:14:22"
			time="00:00.815"
			level="Info"
			category="Mouse">
			<message>
				Mouse Left Click item 'Explorer.CFRAME21RunningWindow' at 32;19.
			</message>
			<metainfo
				type="repoitem"
				path="/menubar[@processname='explorer']/container[@controlid='40965']//toolbar[@accessiblename='Running applications']/button[@accessiblename~'^C\.FRAME\ 2\ -\ 1\ running\ win']"
				fullname="WebcamRepository.Explorer.CFRAME21RunningWindow"
				id="195e6bf642db451eafc80e1487ec3e5f"
				timeout="60000"
				codefile="c:\Users\PG2137\Documents\Ranorex\RanorexStudio Projects\fresh\fresh\Recording1.cs"
				codeline="82"
				itemindex="0"
				loglvl="Info">
			</metainfo>
		</item>
		<item
			timeRelativeToTestSuiteStartTime="00:02.486"
			timeRelativeToTestModuleStartTime="00:02.493"
			timeWallClock="17:14:24"
			time="00:02.486"
			level="Info"
			category="Mouse">
			<message>
				Mouse Left Click item 'CFRAME2.ClearConfig' at 32;20.
			</message>
			<metainfo
				type="repoitem"
				path="/form[@title~'^C\.FRAME\ 2\ \ \ \ \ \ \ \ \ \ \ \ \ \ \ \ ']/?/?/button[@accessiblename='Clear Config']"
				fullname="WebcamRepository.CFRAME2.ClearConfig"
				id="e63f0188c3604c108651662c79c7ed13"
				timeout="60000"
				codefile="c:\Users\PG2137\Documents\Ranorex\RanorexStudio Projects\fresh\fresh\Recording1.cs"
				codeline="86"
				itemindex="1"
				loglvl="Info">
			</metainfo>
		</item>
		<item
			timeRelativeToTestSuiteStartTime="01:00.185"
			timeRelativeToTestModuleStartTime="01:00.192"
			timeWallClock="17:15:21"
			time="01:00.185"
			level="Error"
			category="Module">
			<message>
				The test run has been aborted by the user.
			</message>
			<metainfo
				loglvl="Error">
			</metainfo>
		</item>
	</activity>
</report>
