﻿<?xml version="1.0" encoding="utf-8"?>
<report
	progress="">
	<activity
		result="Success"
		duration="0ms"
		durationms="0"
		type="root"
		rid="528fc322ff4b58a"
		totalerrorcount="0"
		totalwarningcount="1"
		totalsuccesstestcasecount="0"
		totalfailedtestcasecount="0"
		totalblockedtestcasecount="0"
		totalsuccesscount="0"
		totalfailedcount="0"
		totalblockedcount="0"
		user="PG2137"
		rxversion="7.1.1.0"
		host="EGSPL-AUR324"
		osversion="Windows 10 64bit"
		runtimeversion="4.0.30319.42000"
		procarch="32bit"
		oslanguage="en-US"
		dtnlanguage="en-US"
		screenresolution="1920x1080"
		timestamp="5/23/2018 5:01:55 PM"
		timestampiso="2018-05-23T11:31:55"
		endtime="5/23/2018 5:02:13 PM"
		timeoutfactor="1"
		module="Recording1">
		<detail>
			Recording1
		</detail>
		<varbindings>
		</varbindings>
		<item
			timeRelativeToTestSuiteStartTime="00:00.671"
			timeRelativeToTestModuleStartTime="00:00.678"
			timeWallClock="17:01:56"
			time="00:00.671"
			level="Info"
			category="Mouse">
			<message>
				Mouse Left Click item 'CFRAME2.ClearConfig' at 36;15.
			</message>
			<metainfo
				type="repoitem"
				path="/form[@title='C.FRAME 2']/?/?/toolbar[@accessiblename='Tools']/button[@accessiblename='Clear Config']"
				fullname="WebcamRepository.CFRAME2.ClearConfig"
				id="52ac105641c04db5a81d3a5e5b61698c"
				timeout="60000"
				codefile="c:\Users\PG2137\Documents\Ranorex\RanorexStudio Projects\fresh\fresh\Recording1.cs"
				codeline="82"
				itemindex="0"
				loglvl="Info">
			</metainfo>
		</item>
		<item
			timeRelativeToTestSuiteStartTime="00:02.518"
			timeRelativeToTestModuleStartTime="00:02.525"
			timeWallClock="17:01:58"
			time="00:02.518"
			level="Info"
			category="Mouse">
			<message>
				Mouse Left Click item 'CFRAME2.List.PMDParser' at 47;12.
			</message>
			<metainfo
				type="repoitem"
				path="/form[@title='C.FRAME 2']/element[@instance='10']//list[@accessiblerole='List']/listitem[@accessiblename='PMDParser']"
				fullname="WebcamRepository.CFRAME2.List.PMDParser"
				id="c803969de237496b8327c1005862cd64"
				timeout="90000"
				codefile="c:\Users\PG2137\Documents\Ranorex\RanorexStudio Projects\fresh\fresh\Recording1.cs"
				codeline="86"
				itemindex="1"
				loglvl="Info">
			</metainfo>
		</item>
		<item
			timeRelativeToTestSuiteStartTime="00:03.541"
			timeRelativeToTestModuleStartTime="00:03.548"
			timeWallClock="17:01:59"
			time="00:03.541"
			level="Info"
			category="Mouse">
			<message>
				Mouse Scroll Vertical by -1200 units.
			</message>
			<metainfo
				itemindex="2"
				codefile="c:\Users\PG2137\Documents\Ranorex\RanorexStudio Projects\fresh\fresh\Recording1.cs"
				codeline="90"
				loglvl="Info">
			</metainfo>
		</item>
		<item
			timeRelativeToTestSuiteStartTime="00:04.079"
			timeRelativeToTestModuleStartTime="00:04.086"
			timeWallClock="17:01:59"
			time="00:04.079"
			level="Info"
			category="Mouse">
			<message>
				Mouse Left Click item 'CFRAME2.List.Webcam' at 41;6.
			</message>
			<metainfo
				type="repoitem"
				path="/form[@title='C.FRAME 2']/element[@instance='10']//list[@accessiblerole='List']/listitem[@accessiblename='Webcam']"
				fullname="WebcamRepository.CFRAME2.List.Webcam"
				id="151b7b735f444a2aa473c200bf0d0255"
				timeout="90000"
				codefile="c:\Users\PG2137\Documents\Ranorex\RanorexStudio Projects\fresh\fresh\Recording1.cs"
				codeline="94"
				itemindex="3"
				loglvl="Info">
			</metainfo>
		</item>
		<item
			timeRelativeToTestSuiteStartTime="00:05.190"
			timeRelativeToTestModuleStartTime="00:05.197"
			timeWallClock="17:02:00"
			time="00:05.190"
			level="Info"
			category="Mouse">
			<message>
				Mouse Left Down item 'CFRAME2.List.Webcam' at 41;6.
			</message>
			<metainfo
				type="repoitem"
				path="/form[@title='C.FRAME 2']/element[@instance='10']//list[@accessiblerole='List']/listitem[@accessiblename='Webcam']"
				fullname="WebcamRepository.CFRAME2.List.Webcam"
				id="151b7b735f444a2aa473c200bf0d0255"
				timeout="90000"
				codefile="c:\Users\PG2137\Documents\Ranorex\RanorexStudio Projects\fresh\fresh\Recording1.cs"
				codeline="98"
				itemindex="4"
				loglvl="Info">
			</metainfo>
		</item>
		<item
			timeRelativeToTestSuiteStartTime="00:06.168"
			timeRelativeToTestModuleStartTime="00:06.175"
			timeWallClock="17:02:01"
			time="00:06.168"
			level="Info"
			category="Mouse">
			<message>
				Mouse Left Move item 'CFRAME2.List.Webcam' at 49;-2.
			</message>
			<metainfo
				type="repoitem"
				path="/form[@title='C.FRAME 2']/element[@instance='10']//list[@accessiblerole='List']/listitem[@accessiblename='Webcam']"
				fullname="WebcamRepository.CFRAME2.List.Webcam"
				id="151b7b735f444a2aa473c200bf0d0255"
				timeout="90000"
				codefile="c:\Users\PG2137\Documents\Ranorex\RanorexStudio Projects\fresh\fresh\Recording1.cs"
				codeline="103"
				itemindex="5"
				loglvl="Info">
			</metainfo>
		</item>
		<item
			timeRelativeToTestSuiteStartTime="00:06.747"
			timeRelativeToTestModuleStartTime="00:06.754"
			timeWallClock="17:02:02"
			time="00:06.747"
			level="Warn"
			category="MoveTo">
			<message>
				The mouse action was performed outside the boundaries of the assigned UI element.<br/><a class="thickbox" style="padding-right:8px" rel="module" href=".\Recordin_130d31ea_rxlog.jpg"><img src=".\Recordin_130d31ea_rxlog_thumb.jpg" alt="Screenshot"/></a>
			</message>
			<metainfo
				codefile="c:\Users\PG2137\Documents\Ranorex\RanorexStudio Projects\fresh\fresh\Recording1.cs"
				codeline="104"
				loglvl="Warn">
			</metainfo>
		</item>
		<item
			timeRelativeToTestSuiteStartTime="00:07.254"
			timeRelativeToTestModuleStartTime="00:07.261"
			timeWallClock="17:02:02"
			time="00:07.254"
			level="Info"
			category="Mouse">
			<message>
				Mouse Left Up item 'CFRAME2.Client' at 580;201.
			</message>
			<metainfo
				type="repoitem"
				path="/form[@title='C.FRAME 2']/element[@instance='4']/?/?/container[@accessiblerole='Client']"
				fullname="WebcamRepository.CFRAME2.Client"
				id="a75f3d103b634364bb90903a2329115d"
				timeout="60000"
				codefile="c:\Users\PG2137\Documents\Ranorex\RanorexStudio Projects\fresh\fresh\Recording1.cs"
				codeline="107"
				itemindex="6"
				loglvl="Info">
			</metainfo>
		</item>
		<item
			timeRelativeToTestSuiteStartTime="00:08.007"
			timeRelativeToTestModuleStartTime="00:08.014"
			timeWallClock="17:02:03"
			time="00:08.007"
			level="Info"
			category="Mouse">
			<message>
				Mouse Left Click item 'CFRAME2.Client' at 580;201.
			</message>
			<metainfo
				type="repoitem"
				path="/form[@title='C.FRAME 2']/element[@instance='4']/?/?/container[@accessiblerole='Client']"
				fullname="WebcamRepository.CFRAME2.Client"
				id="a75f3d103b634364bb90903a2329115d"
				timeout="60000"
				codefile="c:\Users\PG2137\Documents\Ranorex\RanorexStudio Projects\fresh\fresh\Recording1.cs"
				codeline="112"
				itemindex="7"
				loglvl="Info">
			</metainfo>
		</item>
		<item
			timeRelativeToTestSuiteStartTime="00:08.890"
			timeRelativeToTestModuleStartTime="00:08.897"
			timeWallClock="17:02:04"
			time="00:08.890"
			level="Info"
			category="Mouse">
			<message>
				Mouse Left Click item 'CFRAME2.List.VideoWidget' at 87;8.
			</message>
			<metainfo
				type="repoitem"
				path="/form[@title='C.FRAME 2']/element[@instance='10']//list[@accessiblerole='List']/listitem[@accessiblename='VideoWidget']"
				fullname="WebcamRepository.CFRAME2.List.VideoWidget"
				id="2eca897e347b4535b33f67353e359428"
				timeout="90000"
				codefile="c:\Users\PG2137\Documents\Ranorex\RanorexStudio Projects\fresh\fresh\Recording1.cs"
				codeline="116"
				itemindex="8"
				loglvl="Info">
			</metainfo>
		</item>
		<item
			timeRelativeToTestSuiteStartTime="00:09.967"
			timeRelativeToTestModuleStartTime="00:09.974"
			timeWallClock="17:02:05"
			time="00:09.967"
			level="Info"
			category="Mouse">
			<message>
				Mouse Left Down item 'CFRAME2.List.VideoWidget' at 87;8.
			</message>
			<metainfo
				type="repoitem"
				path="/form[@title='C.FRAME 2']/element[@instance='10']//list[@accessiblerole='List']/listitem[@accessiblename='VideoWidget']"
				fullname="WebcamRepository.CFRAME2.List.VideoWidget"
				id="2eca897e347b4535b33f67353e359428"
				timeout="90000"
				codefile="c:\Users\PG2137\Documents\Ranorex\RanorexStudio Projects\fresh\fresh\Recording1.cs"
				codeline="120"
				itemindex="9"
				loglvl="Info">
			</metainfo>
		</item>
		<item
			timeRelativeToTestSuiteStartTime="00:10.964"
			timeRelativeToTestModuleStartTime="00:10.971"
			timeWallClock="17:02:06"
			time="00:10.964"
			level="Info"
			category="Mouse">
			<message>
				Mouse Left Move item 'CFRAME2.List.VideoWidget' at 95;0.
			</message>
			<metainfo
				type="repoitem"
				path="/form[@title='C.FRAME 2']/element[@instance='10']//list[@accessiblerole='List']/listitem[@accessiblename='VideoWidget']"
				fullname="WebcamRepository.CFRAME2.List.VideoWidget"
				id="2eca897e347b4535b33f67353e359428"
				timeout="90000"
				codefile="c:\Users\PG2137\Documents\Ranorex\RanorexStudio Projects\fresh\fresh\Recording1.cs"
				codeline="125"
				itemindex="10"
				loglvl="Info">
			</metainfo>
		</item>
		<item
			timeRelativeToTestSuiteStartTime="00:11.651"
			timeRelativeToTestModuleStartTime="00:11.658"
			timeWallClock="17:02:07"
			time="00:11.651"
			level="Info"
			category="Mouse">
			<message>
				Mouse Left Up item 'CFRAME2.Client' at 1184;219.
			</message>
			<metainfo
				type="repoitem"
				path="/form[@title='C.FRAME 2']/element[@instance='4']/?/?/container[@accessiblerole='Client']"
				fullname="WebcamRepository.CFRAME2.Client"
				id="a75f3d103b634364bb90903a2329115d"
				timeout="60000"
				codefile="c:\Users\PG2137\Documents\Ranorex\RanorexStudio Projects\fresh\fresh\Recording1.cs"
				codeline="129"
				itemindex="11"
				loglvl="Info">
			</metainfo>
		</item>
		<item
			timeRelativeToTestSuiteStartTime="00:12.250"
			timeRelativeToTestModuleStartTime="00:12.257"
			timeWallClock="17:02:07"
			time="00:12.250"
			level="Info"
			category="Mouse">
			<message>
				Mouse Left Click item 'CFRAME2.Client1' at 709;219.
			</message>
			<metainfo
				type="repoitem"
				path="/form[@title='C.FRAME 2']/element[@instance='6']/?/?/container[@accessiblerole='Client']"
				fullname="WebcamRepository.CFRAME2.Client1"
				id="5bd6cf74e0a246af84bdfae3e01c0349"
				timeout="60000"
				codefile="c:\Users\PG2137\Documents\Ranorex\RanorexStudio Projects\fresh\fresh\Recording1.cs"
				codeline="134"
				itemindex="12"
				loglvl="Info">
			</metainfo>
		</item>
		<item
			timeRelativeToTestSuiteStartTime="00:13.145"
			timeRelativeToTestModuleStartTime="00:13.152"
			timeWallClock="17:02:08"
			time="00:13.145"
			level="Info"
			category="Mouse">
			<message>
				Mouse Left Click item 'CFRAME2.Client1' at 560;304.
			</message>
			<metainfo
				type="repoitem"
				path="/form[@title='C.FRAME 2']/element[@instance='6']/?/?/container[@accessiblerole='Client']"
				fullname="WebcamRepository.CFRAME2.Client1"
				id="5bd6cf74e0a246af84bdfae3e01c0349"
				timeout="60000"
				codefile="c:\Users\PG2137\Documents\Ranorex\RanorexStudio Projects\fresh\fresh\Recording1.cs"
				codeline="138"
				itemindex="13"
				loglvl="Info">
			</metainfo>
		</item>
		<item
			timeRelativeToTestSuiteStartTime="00:13.992"
			timeRelativeToTestModuleStartTime="00:13.999"
			timeWallClock="17:02:09"
			time="00:13.992"
			level="Info"
			category="Mouse">
			<message>
				Mouse Left Click item 'CFRAME2.Client1' at 868;293.
			</message>
			<metainfo
				type="repoitem"
				path="/form[@title='C.FRAME 2']/element[@instance='6']/?/?/container[@accessiblerole='Client']"
				fullname="WebcamRepository.CFRAME2.Client1"
				id="5bd6cf74e0a246af84bdfae3e01c0349"
				timeout="60000"
				codefile="c:\Users\PG2137\Documents\Ranorex\RanorexStudio Projects\fresh\fresh\Recording1.cs"
				codeline="142"
				itemindex="14"
				loglvl="Info">
			</metainfo>
		</item>
		<item
			timeRelativeToTestSuiteStartTime="00:14.854"
			timeRelativeToTestModuleStartTime="00:14.861"
			timeWallClock="17:02:10"
			time="00:14.854"
			level="Info"
			category="Mouse">
			<message>
				Mouse Left Click item 'CFRAME2.Client1' at 375;252.
			</message>
			<metainfo
				type="repoitem"
				path="/form[@title='C.FRAME 2']/element[@instance='6']/?/?/container[@accessiblerole='Client']"
				fullname="WebcamRepository.CFRAME2.Client1"
				id="5bd6cf74e0a246af84bdfae3e01c0349"
				timeout="60000"
				codefile="c:\Users\PG2137\Documents\Ranorex\RanorexStudio Projects\fresh\fresh\Recording1.cs"
				codeline="146"
				itemindex="15"
				loglvl="Info">
			</metainfo>
		</item>
		<item
			timeRelativeToTestSuiteStartTime="00:15.787"
			timeRelativeToTestModuleStartTime="00:15.794"
			timeWallClock="17:02:11"
			time="00:15.787"
			level="Info"
			category="Mouse">
			<message>
				Mouse Left DoubleClick item 'CFRAME2.Client1' at 375;252.
			</message>
			<metainfo
				type="repoitem"
				path="/form[@title='C.FRAME 2']/element[@instance='6']/?/?/container[@accessiblerole='Client']"
				fullname="WebcamRepository.CFRAME2.Client1"
				id="5bd6cf74e0a246af84bdfae3e01c0349"
				timeout="60000"
				codefile="c:\Users\PG2137\Documents\Ranorex\RanorexStudio Projects\fresh\fresh\Recording1.cs"
				codeline="150"
				itemindex="16"
				loglvl="Info">
			</metainfo>
		</item>
		<item
			timeRelativeToTestSuiteStartTime="00:16.885"
			timeRelativeToTestModuleStartTime="00:16.892"
			timeWallClock="17:02:12"
			time="00:16.885"
			level="Info"
			category="Mouse">
			<message>
				Mouse Left DoubleClick item 'CFRAME2.Client1' at 377;274.
			</message>
			<metainfo
				type="repoitem"
				path="/form[@title='C.FRAME 2']/element[@instance='6']/?/?/container[@accessiblerole='Client']"
				fullname="WebcamRepository.CFRAME2.Client1"
				id="5bd6cf74e0a246af84bdfae3e01c0349"
				timeout="60000"
				codefile="c:\Users\PG2137\Documents\Ranorex\RanorexStudio Projects\fresh\fresh\Recording1.cs"
				codeline="154"
				itemindex="17"
				loglvl="Info">
			</metainfo>
		</item>
	</activity>
</report>
